uID,OriginIP,OriginPort,OriginPortName,DestinationIP,DestinationPort,DestPortName,Protocol,TotalPackets,TotalBytes
10022,"192.168.0.19",54243,"tba","216.58.217.46",443,"tba","TCP",10,1668
0,"192.168.0.19",18752,"tba","192.168.0.1",53,"tba","UDP",1,68
10022,"192.168.0.19",58792,"tba","216.58.217.42",443,"tba","TCP",26,2937
10112,"192.168.0.19",48533,"tba","216.58.193.68",443,"tba","TCP",13,1391
0,"192.168.0.1",53,"tba","192.168.0.19",38246,"tba","UDP",1,112
10022,"216.58.217.46",443,"tba","192.168.0.19",54241,"tba","TCP",12,1269
0,"192.168.0.19",24477,"tba","192.168.0.1",53,"tba","UDP",1,73
10022,"192.168.0.19",58793,"tba","216.58.217.42",443,"tba","TCP",17,9795
10067,"216.58.217.46",443,"tba","192.168.0.19",54234,"tba","TCP",40,29629
0,"192.168.0.19",16684,"tba","192.168.0.1",53,"tba","UDP",1,63
0,"192.168.0.1",53,"tba","192.168.0.19",39943,"tba","UDP",1,76
10022,"192.168.0.19",54230,"tba","216.58.217.46",443,"tba","TCP",15,1877
0,"192.168.0.19",38246,"tba","192.168.0.1",53,"tba","UDP",1,72
10022,"192.168.0.19",58798,"tba","216.58.217.42",443,"tba","TCP",12,2343
10067,"192.168.0.19",58789,"tba","216.58.217.42",443,"tba","TCP",15,3457
0,"192.168.0.19",52629,"tba","192.168.0.1",53,"tba","UDP",1,64
10112,"192.168.0.19",48535,"tba","216.58.193.68",443,"tba","TCP",10,1372
0,"192.168.0.19",25254,"tba","192.168.0.1",53,"tba","UDP",1,64
10022,"192.168.0.19",54247,"tba","216.58.217.46",443,"tba","TCP",10,1590
10022,"216.58.217.46",443,"tba","192.168.0.19",54230,"tba","TCP",11,5518
10114,"216.58.217.46",443,"tba","192.168.0.19",54232,"tba","TCP",17,7313
10022,"216.58.217.42",443,"tba","192.168.0.19",58785,"tba","TCP",47,59602
10022,"192.168.0.19",58796,"tba","216.58.217.42",443,"tba","TCP",13,2344
0,"192.168.0.19",63132,"tba","192.168.0.1",53,"tba","UDP",1,63
10022,"216.58.217.46",443,"tba","192.168.0.19",54227,"tba","TCP",11,5689
10114,"192.168.0.19",54246,"tba","216.58.217.46",443,"tba","TCP",11,2150
10067,"216.58.217.42",443,"tba","192.168.0.19",58789,"tba","TCP",12,5245
0,"192.168.0.19",9651,"tba","192.168.0.1",53,"tba","UDP",1,63
-1,"192.168.0.1",0,"tba","224.0.0.1",0,"tba","2",25,900
10022,"216.58.217.42",443,"tba","192.168.0.19",58796,"tba","TCP",10,5072
10114,"216.58.217.46",443,"tba","192.168.0.19",54245,"tba","TCP",8,1229
10114,"192.168.0.19",54245,"tba","216.58.217.46",443,"tba","TCP",11,2150
10022,"74.125.202.188",5228,"tba","192.168.0.19",33669,"tba","TCP",12,5130
10001,"52.85.83.68",80,"tba","192.168.0.19",38006,"tba","TCP",4,1623
0,"192.168.0.19",10337,"tba","192.168.0.1",53,"tba","UDP",1,65
0,"192.168.0.19",43421,"tba","192.168.0.1",53,"tba","UDP",1,73
10022,"216.58.217.42",443,"tba","192.168.0.19",58792,"tba","TCP",40,47620
10022,"216.58.217.46",443,"tba","192.168.0.19",54233,"tba","TCP",18,1890
10114,"216.58.217.46",443,"tba","192.168.0.19",54246,"tba","TCP",9,1281
0,"192.168.0.1",53,"tba","192.168.0.19",52629,"tba","UDP",1,130
0,"192.168.0.19",61710,"tba","192.168.0.1",53,"tba","UDP",1,72
0,"192.168.0.1",53,"tba","192.168.0.19",61710,"tba","UDP",1,112
10022,"216.58.217.34",443,"tba","192.168.0.19",53863,"tba","TCP",8,5233
10114,"192.168.0.19",54248,"tba","216.58.217.46",443,"tba","TCP",8,1328
10022,"192.168.0.19",54233,"tba","216.58.217.46",443,"tba","TCP",18,12959
0,"192.168.0.1",53,"tba","192.168.0.19",16684,"tba","UDP",1,107
10022,"192.168.0.19",54227,"tba","216.58.217.46",443,"tba","TCP",15,2044
10022,"192.168.0.19",48164,"tba","216.58.217.10",443,"tba","TCP",13,1657
0,"192.168.0.1",53,"tba","192.168.0.19",24477,"tba","UDP",1,114
10022,"216.58.217.42",443,"tba","192.168.0.19",58794,"tba","TCP",44,52298
10022,"216.58.217.10",443,"tba","192.168.0.19",48164,"tba","TCP",9,5075
0,"192.168.0.1",53,"tba","192.168.0.19",9651,"tba","UDP",1,109
0,"192.168.0.19",38333,"tba","192.168.0.1",53,"tba","UDP",1,60
10114,"216.58.217.46",443,"tba","192.168.0.19",54223,"tba","TCP",11,5742
0,"192.168.0.1",53,"tba","192.168.0.19",63132,"tba","UDP",1,107
10114,"192.168.0.19",54223,"tba","216.58.217.46",443,"tba","TCP",15,1747
0,"192.168.0.1",53,"tba","192.168.0.19",15165,"tba","UDP",1,112
10114,"216.58.217.46",443,"tba","192.168.0.19",54248,"tba","TCP",8,1241
10001,"192.168.0.19",38006,"tba","52.85.83.68",80,"tba","TCP",6,468
0,"192.168.0.1",53,"tba","192.168.0.19",43421,"tba","UDP",1,139
10022,"192.168.0.19",58794,"tba","216.58.217.42",443,"tba","TCP",28,3041
10114,"192.168.0.19",54232,"tba","216.58.217.46",443,"tba","TCP",22,4023
0,"192.168.0.19",15165,"tba","192.168.0.1",53,"tba","UDP",1,72
-1,"216.58.217.46",80,"tba","192.168.0.19",43939,"tba","TCP",2,104
0,"192.168.0.1",53,"tba","192.168.0.19",38333,"tba","UDP",1,231
10001,"192.168.0.19",38007,"tba","52.85.83.68",80,"tba","TCP",7,522
10001,"52.85.83.68",80,"tba","192.168.0.19",38007,"tba","TCP",5,1749
0,"192.168.0.19",57449,"tba","192.168.0.1",53,"tba","UDP",1,63
0,"192.168.0.1",53,"tba","192.168.0.19",18752,"tba","UDP",1,84
10022,"192.168.0.19",58785,"tba","216.58.217.42",443,"tba","TCP",31,2905
10022,"216.58.217.46",443,"tba","192.168.0.19",54247,"tba","TCP",9,1470
10022,"192.168.0.19",33669,"tba","74.125.202.188",5228,"tba","TCP",15,1408
0,"192.168.0.1",53,"tba","192.168.0.19",62271,"tba","UDP",1,107
10022,"192.168.0.19",54241,"tba","216.58.217.46",443,"tba","TCP",14,10041
0,"192.168.0.19",39943,"tba","192.168.0.1",53,"tba","UDP",1,60
10112,"216.58.193.68",443,"tba","192.168.0.19",48535,"tba","TCP",9,1521
10045,"192.168.0.1",53,"tba","192.168.0.19",18909,"tba","UDP",1,130
10022,"216.58.217.42",443,"tba","192.168.0.19",58793,"tba","TCP",12,5309
0,"192.168.0.1",53,"tba","192.168.0.19",57449,"tba","UDP",1,107
0,"192.168.0.1",53,"tba","192.168.0.19",10337,"tba","UDP",1,131
10022,"216.58.217.46",443,"tba","192.168.0.19",54243,"tba","TCP",9,1382
10112,"216.58.193.68",443,"tba","192.168.0.19",48533,"tba","TCP",10,5271
0,"192.168.0.19",62271,"tba","192.168.0.1",53,"tba","UDP",1,63
1000,"192.168.0.19",43939,"tba","216.58.217.46",80,"tba","TCP",1,64
10045,"192.168.0.19",18909,"tba","192.168.0.1",53,"tba","UDP",1,64
0,"192.168.0.1",53,"tba","192.168.0.19",25254,"tba","UDP",1,130
10022,"192.168.0.19",53863,"tba","216.58.217.34",443,"tba","TCP",11,1250
10022,"216.58.217.42",443,"tba","192.168.0.19",58798,"tba","TCP",11,5518
10067,"192.168.0.19",54234,"tba","216.58.217.46",443,"tba","TCP",45,12024
