uID,"AppName","OriginIP",OriginPort,"OriginPortName","DestinationIP",DestinationPort,"DestPortName","Protocol",TotalPackets,TotalBytes,"RemoteCity","RemoteRegion","RemoteCountry",Latitude,Longitude
10022,"com.google.android.syncadapters.bookmarks","172.217.5.74",443,"https","155.99.88.221",40071,"","TCP",7,1120,"Mountain View","California","US",37.4192,-122.0574
10144,"com.android.chrome","155.99.88.221",33347,"","104.16.153.135",443,"https","TCP",10,731,"San Francisco","California","US",37.7697,-122.3933
10144,"com.android.chrome","155.99.88.221",35119,"","185.89.13.59",443,"https","TCP",15,1649,"","","RU",55.7386,37.6068
10144,"com.android.chrome","216.58.193.194",443,"https","155.99.88.221",54768,"","UDP",9,5847,"Mountain View","California","US",37.4192,-122.0574
10144,"com.android.chrome","216.155.194.56",443,"https","155.99.88.221",49834,"","TCP",9,4413,"Sunnyvale","California","US",37.4249,-122.0074
10144,"com.android.chrome","185.89.12.132",443,"https","155.99.88.221",39028,"","TCP",2,112,"","","RU",55.7386,37.6068
0,"root","155.99.88.221",23329,"","155.97.136.200",53,"domain","UDP",1,61,"Salt Lake City","Utah","US",40.7855,-111.7367
10144,"com.android.chrome","194.226.130.226",443,"https","155.99.88.221",43759,"","TCP",6,3193,"Rostov-on-Don","Rostov Oblast","RU",47.2364,39.7139
10144,"com.android.chrome","155.99.88.221",34989,"","54.183.37.232",443,"https","TCP",12,951,"San Jose","California","US",37.3388,-121.8914
10022,"com.google.android.syncadapters.bookmarks","155.99.88.221",49559,"","216.58.216.42",443,"https","TCP",15,1797,"Mountain View","California","US",37.4192,-122.0574
10144,"com.android.chrome","172.217.5.66",443,"https","155.99.88.221",54355,"","UDP",141,182018,"Mountain View","California","US",37.4192,-122.0574
0,"root","155.99.88.221",49591,"","155.97.136.200",53,"domain","UDP",1,64,"Salt Lake City","Utah","US",40.7855,-111.7367
0,"root","155.99.88.221",8269,"","155.97.136.200",53,"domain","UDP",1,58,"Salt Lake City","Utah","US",40.7855,-111.7367
10144,"com.android.chrome","155.99.88.221",33348,"","104.16.153.135",443,"https","TCP",4,180,"San Francisco","California","US",37.7697,-122.3933
10144,"com.android.chrome","172.217.4.162",443,"https","155.99.88.221",37442,"","UDP",10,6417,"Mountain View","California","US",37.4192,-122.0574
0,"root","155.99.88.221",59873,"","155.97.136.200",53,"domain","UDP",1,61,"Salt Lake City","Utah","US",40.7855,-111.7367
10144,"com.android.chrome","155.99.88.221",33374,"","185.89.13.45",443,"https","TCP",4,216,"","","RU",55.7386,37.6068
10144,"com.android.chrome","162.208.20.184",443,"https","155.99.88.221",51658,"","TCP",10,6879,"San Francisco","California","US",37.7909,-122.4017
10144,"com.android.chrome","155.99.88.221",39033,"","185.89.12.132",443,"https","TCP",10,847,"","","RU",55.7386,37.6068
0,"root","155.97.136.200",53,"domain","155.99.88.221",54951,"","UDP",1,451,"Salt Lake City","Utah","US",40.7855,-111.7367
10144,"com.android.chrome","155.99.88.221",49834,"","216.155.194.56",443,"https","TCP",12,1567,"Sunnyvale","California","US",37.4249,-122.0074
10144,"com.android.chrome","155.99.88.221",36367,"","198.8.71.239",443,"https","TCP",7,907,"Redwood City","California","US",37.5331,-122.2471
0,"root","155.99.88.221",4207,"vrml-multi-use","155.97.136.200",53,"domain","UDP",1,64,"Salt Lake City","Utah","US",40.7855,-111.7367
10144,"com.android.chrome","155.99.88.221",49678,"","172.217.5.72",443,"https","TCP",15,1428,"Mountain View","California","US",37.4192,-122.0574
10144,"com.android.chrome","155.99.88.221",34693,"","54.227.61.15",443,"https","TCP",19,3826,"Ashburn","Virginia","US",39.0481,-77.4728
10144,"com.android.chrome","155.99.88.221",39049,"","185.89.12.132",443,"https","TCP",10,1171,"","","RU",55.7386,37.6068
10022,"com.google.android.syncadapters.bookmarks","155.99.88.221",54270,"","74.125.199.188",5228,"","TCP",1,143,"Mountain View","California","US",37.4192,-122.0574
10144,"com.android.chrome","155.99.88.221",33927,"","213.180.193.90",443,"https","TCP",97,13529,"","","RU",55.7386,37.6068
0,"root","155.99.88.221",29732,"","155.97.136.200",53,"domain","UDP",1,58,"Salt Lake City","Utah","US",40.7855,-111.7367
10144,"com.android.chrome","88.212.196.77",443,"https","155.99.88.221",47228,"","TCP",11,4833,"","","RU",55.7386,37.6068
10144,"com.android.chrome","155.99.88.221",42475,"","172.217.5.72",443,"https","UDP",13,3715,"Mountain View","California","US",37.4192,-122.0574
0,"root","155.97.136.200",53,"domain","155.99.88.221",47460,"","UDP",1,451,"Salt Lake City","Utah","US",40.7855,-111.7367
0,"root","155.97.136.200",53,"domain","155.99.88.221",23329,"","UDP",1,435,"Salt Lake City","Utah","US",40.7855,-111.7367
0,"root","155.99.88.221",26755,"","155.97.136.200",53,"domain","UDP",1,61,"Salt Lake City","Utah","US",40.7855,-111.7367
0,"root","155.97.136.200",53,"domain","155.99.88.221",53641,"","UDP",1,307,"Salt Lake City","Utah","US",40.7855,-111.7367
0,"root","155.97.136.200",53,"domain","155.99.88.221",10902,"","UDP",1,311,"Salt Lake City","Utah","US",40.7855,-111.7367
0,"root","155.97.136.200",53,"domain","155.99.88.221",42806,"","UDP",1,299,"Salt Lake City","Utah","US",40.7855,-111.7367
10001,"com.tmobile.pr.mytmobile","155.99.88.221",55518,"","74.6.34.28",80,"http","TCP",6,721,"Sunnyvale","California","US",37.4249,-122.0074
0,"root","155.99.88.221",38660,"","155.97.136.200",53,"domain","UDP",1,70,"Salt Lake City","Utah","US",40.7855,-111.7367
10144,"com.android.chrome","155.99.88.221",37442,"","172.217.4.162",443,"https","UDP",9,5181,"Mountain View","California","US",37.4192,-122.0574
0,"root","155.97.136.200",53,"domain","155.99.88.221",39602,"","UDP",1,451,"Salt Lake City","Utah","US",40.7855,-111.7367
10144,"com.android.chrome","155.99.88.221",43759,"","194.226.130.226",443,"https","TCP",9,1017,"Rostov-on-Don","Rostov Oblast","RU",47.2364,39.7139
10144,"com.android.chrome","185.89.12.132",443,"https","155.99.88.221",39043,"","TCP",14,6229,"","","RU",55.7386,37.6068
0,"root","155.99.88.221",39223,"","155.97.136.200",53,"domain","UDP",1,65,"Salt Lake City","Utah","US",40.7855,-111.7367
0,"root","155.97.136.200",53,"domain","155.99.88.221",45097,"","UDP",1,435,"Salt Lake City","Utah","US",40.7855,-111.7367
0,"root","155.99.88.221",31300,"","155.97.136.200",53,"domain","UDP",1,61,"Salt Lake City","Utah","US",40.7855,-111.7367
0,"root","155.97.136.200",53,"domain","155.99.88.221",2522,"windb","UDP",1,262,"Salt Lake City","Utah","US",40.7855,-111.7367
10144,"com.android.chrome","155.99.88.221",41020,"","172.217.4.162",443,"https","UDP",4,2934,"Mountain View","California","US",37.4192,-122.0574
0,"root","155.99.88.221",61123,"","155.97.136.200",53,"domain","UDP",1,61,"Salt Lake City","Utah","US",40.7855,-111.7367
10144,"com.android.chrome","216.58.193.194",443,"https","155.99.88.221",42568,"","UDP",13,6537,"Mountain View","California","US",37.4192,-122.0574
10144,"com.android.chrome","155.99.88.221",48388,"","185.89.13.17",443,"https","TCP",15,1637,"","","RU",55.7386,37.6068
10144,"com.android.chrome","155.99.88.221",55943,"","87.250.251.119",443,"https","TCP",37,12898,"","","RU",55.7386,37.6068
10144,"com.android.chrome","54.227.61.15",443,"https","155.99.88.221",34693,"","TCP",13,8338,"Ashburn","Virginia","US",39.0481,-77.4728
0,"root","155.99.88.221",49740,"","155.97.136.200",53,"domain","UDP",1,64,"Salt Lake City","Utah","US",40.7855,-111.7367
10144,"com.android.chrome","172.217.4.134",443,"https","155.99.88.221",45283,"","UDP",8,7077,"Mountain View","California","US",37.4192,-122.0574
0,"root","155.99.88.221",12583,"","155.97.136.200",53,"domain","UDP",1,66,"Salt Lake City","Utah","US",40.7855,-111.7367
10144,"com.android.chrome","136.243.149.224",443,"https","155.99.88.221",41399,"","TCP",2,112,"","","DE",51.2993,9.4910
10144,"com.android.chrome","38.72.130.155",443,"https","155.99.88.221",54963,"","TCP",19,14845,"","","US",37.7510,-97.8220
0,"root","155.99.88.221",42806,"","155.97.136.200",53,"domain","UDP",1,65,"Salt Lake City","Utah","US",40.7855,-111.7367
10144,"com.android.chrome","155.99.88.221",58617,"","62.140.247.108",443,"https","TCP",14,1625,"Staronikolskoye","Moscow City","RU",55.5000,37.5500
10144,"com.android.chrome","155.99.88.221",55192,"","38.72.130.155",80,"http","TCP",6,2511,"","","US",37.7510,-97.8220
10144,"com.android.chrome","140.197.248.80",443,"https","155.99.88.221",40496,"","TCP",9,4791,"Salt Lake City","Utah","US",40.6247,-111.7123
10144,"com.android.chrome","185.89.13.53",443,"https","155.99.88.221",47929,"","TCP",13,12162,"","","RU",55.7386,37.6068
10144,"com.android.chrome","87.250.251.119",443,"https","155.99.88.221",55943,"","TCP",27,15997,"","","RU",55.7386,37.6068
10144,"com.android.chrome","155.99.88.221",51605,"","77.88.55.88",443,"https","TCP",4,216,"","","RU",55.7386,37.6068
10144,"com.android.chrome","216.58.193.194",443,"https","155.99.88.221",58439,"","UDP",13,6420,"Mountain View","California","US",37.4192,-122.0574
0,"root","155.97.136.200",53,"domain","155.99.88.221",49279,"","UDP",1,435,"Salt Lake City","Utah","US",40.7855,-111.7367
0,"root","155.97.136.200",53,"domain","155.99.88.221",40610,"","UDP",1,394,"Salt Lake City","Utah","US",40.7855,-111.7367
10144,"com.android.chrome","136.243.149.224",443,"https","155.99.88.221",41435,"","TCP",7,749,"","","DE",51.2993,9.4910
0,"root","155.99.88.221",16565,"","155.97.136.200",53,"domain","UDP",1,75,"Salt Lake City","Utah","US",40.7855,-111.7367
10144,"com.android.chrome","185.89.13.29",443,"https","155.99.88.221",46463,"","TCP",14,12904,"","","RU",55.7386,37.6068
10144,"com.android.chrome","155.99.88.221",44418,"","172.217.5.78",443,"https","TCP",46,3226,"Mountain View","California","US",37.4192,-122.0574
10144,"com.android.chrome","185.89.12.132",443,"https","155.99.88.221",39033,"","TCP",7,4310,"","","RU",55.7386,37.6068
0,"root","155.99.88.221",12207,"","155.97.136.200",53,"domain","UDP",1,70,"Salt Lake City","Utah","US",40.7855,-111.7367
10144,"com.android.chrome","104.16.38.20",443,"https","155.99.88.221",56736,"","TCP",8,6312,"San Francisco","California","US",37.7697,-122.3933
10144,"com.android.chrome","69.194.244.11",443,"https","155.99.88.221",59217,"","TCP",8,4725,"Redwood City","California","US",37.4914,-122.2110
0,"root","155.97.136.200",53,"domain","155.99.88.221",3790,"quickbooksrds","UDP",1,435,"Salt Lake City","Utah","US",40.7855,-111.7367
0,"root","155.99.88.221",60560,"","155.97.136.200",53,"domain","UDP",1,70,"Salt Lake City","Utah","US",40.7855,-111.7367
0,"root","155.99.88.221",54951,"","155.97.136.200",53,"domain","UDP",1,61,"Salt Lake City","Utah","US",40.7855,-111.7367
10144,"com.android.chrome","185.89.13.17",443,"https","155.99.88.221",48388,"","TCP",12,8644,"","","RU",55.7386,37.6068
10144,"com.android.chrome","155.99.88.221",34697,"","54.227.61.15",443,"https","TCP",6,888,"Ashburn","Virginia","US",39.0481,-77.4728
10144,"com.android.chrome","155.99.88.221",40496,"","140.197.248.80",443,"https","TCP",13,1290,"Salt Lake City","Utah","US",40.6247,-111.7123
0,"root","155.97.136.200",53,"domain","155.99.88.221",31300,"","UDP",1,435,"Salt Lake City","Utah","US",40.7855,-111.7367
0,"root","155.97.136.200",53,"domain","155.99.88.221",15546,"","UDP",1,266,"Salt Lake City","Utah","US",40.7855,-111.7367
10144,"com.android.chrome","155.99.88.221",39026,"","185.89.12.132",443,"https","TCP",45,7921,"","","RU",55.7386,37.6068
10144,"com.android.chrome","172.217.5.72",443,"https","155.99.88.221",49678,"","TCP",13,5227,"Mountain View","California","US",37.4192,-122.0574
10144,"com.android.chrome","54.88.79.222",443,"https","155.99.88.221",56142,"","TCP",9,5926,"Ashburn","Virginia","US",39.0481,-77.4728
0,"root","155.97.136.200",53,"domain","155.99.88.221",12207,"","UDP",1,520,"Salt Lake City","Utah","US",40.7855,-111.7367
0,"root","155.99.88.221",23530,"","155.97.136.200",53,"domain","UDP",1,55,"Salt Lake City","Utah","US",40.7855,-111.7367
0,"root","155.97.136.200",53,"domain","155.99.88.221",50670,"","UDP",1,391,"Salt Lake City","Utah","US",40.7855,-111.7367
0,"root","155.99.88.221",38709,"","155.97.136.200",53,"domain","UDP",1,58,"Salt Lake City","Utah","US",40.7855,-111.7367
0,"root","155.97.136.200",53,"domain","155.99.88.221",47412,"","UDP",1,451,"Salt Lake City","Utah","US",40.7855,-111.7367
0,"root","155.97.136.200",53,"domain","155.99.88.221",4207,"vrml-multi-use","UDP",1,226,"Salt Lake City","Utah","US",40.7855,-111.7367
10144,"com.android.chrome","185.89.12.132",443,"https","155.99.88.221",39049,"","TCP",7,4310,"","","RU",55.7386,37.6068
0,"root","155.97.136.200",53,"domain","155.99.88.221",62355,"","UDP",1,251,"Salt Lake City","Utah","US",40.7855,-111.7367
10144,"com.android.chrome","155.99.88.221",54911,"","38.72.130.155",443,"https","TCP",9,1027,"","","US",37.7510,-97.8220
0,"root","155.97.136.200",53,"domain","155.99.88.221",20943,"","UDP",1,247,"Salt Lake City","Utah","US",40.7855,-111.7367
10144,"com.android.chrome","155.99.88.221",54355,"","172.217.5.66",443,"https","UDP",76,10951,"Mountain View","California","US",37.4192,-122.0574
10144,"com.android.chrome","155.99.88.221",39028,"","185.89.12.132",443,"https","TCP",5,276,"","","RU",55.7386,37.6068
10144,"com.android.chrome","155.99.88.221",36365,"","198.8.71.239",443,"https","TCP",7,919,"Redwood City","California","US",37.5331,-122.2471
0,"root","155.97.136.200",53,"domain","155.99.88.221",38614,"","UDP",1,451,"Salt Lake City","Utah","US",40.7855,-111.7367
0,"root","155.97.136.200",53,"domain","155.99.88.221",4663,"noteit","UDP",1,435,"Salt Lake City","Utah","US",40.7855,-111.7367
10001,"com.tmobile.pr.mytmobile","74.6.34.28",80,"http","155.99.88.221",55519,"","TCP",5,417,"Sunnyvale","California","US",37.4249,-122.0074
10144,"com.android.chrome","198.8.71.239",443,"https","155.99.88.221",36365,"","TCP",7,3085,"Redwood City","California","US",37.5331,-122.2471
10144,"com.android.chrome","216.58.216.14",443,"https","155.99.88.221",35792,"","UDP",16,8453,"Mountain View","California","US",37.4192,-122.0574
0,"root","155.99.88.221",16509,"","155.97.136.200",53,"domain","UDP",1,73,"Salt Lake City","Utah","US",40.7855,-111.7367
10144,"com.android.chrome","54.183.37.232",443,"https","155.99.88.221",34989,"","TCP",9,5152,"San Jose","California","US",37.3388,-121.8914
0,"root","155.99.88.221",60242,"","155.97.136.200",53,"domain","UDP",1,58,"Salt Lake City","Utah","US",40.7855,-111.7367
10144,"com.android.chrome","185.89.13.28",443,"https","155.99.88.221",47434,"","TCP",12,10100,"","","RU",55.7386,37.6068
10022,"com.google.android.syncadapters.bookmarks","172.217.5.74",443,"https","155.99.88.221",40070,"","TCP",10,5088,"Mountain View","California","US",37.4192,-122.0574
0,"root","155.99.88.221",54833,"","155.97.136.200",53,"domain","UDP",1,58,"Salt Lake City","Utah","US",40.7855,-111.7367
10144,"com.android.chrome","38.72.130.155",443,"https","155.99.88.221",54912,"","TCP",11,8841,"","","US",37.7510,-97.8220
10144,"com.android.chrome","38.72.130.155",443,"https","155.99.88.221",54964,"","TCP",15,6876,"","","US",37.7510,-97.8220
0,"root","155.97.136.200",53,"domain","155.99.88.221",9103,"bacula-sd","UDP",1,435,"Salt Lake City","Utah","US",40.7855,-111.7367
10144,"com.android.chrome","155.99.88.221",54912,"","38.72.130.155",443,"https","TCP",13,3516,"","","US",37.7510,-97.8220
10144,"com.android.chrome","155.99.88.221",54963,"","38.72.130.155",443,"https","TCP",22,6034,"","","US",37.7510,-97.8220
0,"root","155.99.88.221",9103,"bacula-sd","155.97.136.200",53,"domain","UDP",1,61,"Salt Lake City","Utah","US",40.7855,-111.7367
0,"root","155.99.88.221",62355,"","155.97.136.200",53,"domain","UDP",1,66,"Salt Lake City","Utah","US",40.7855,-111.7367
10144,"com.android.chrome","185.89.13.46",443,"https","155.99.88.221",36523,"","TCP",65,89729,"","","RU",55.7386,37.6068
10144,"com.android.chrome","194.226.130.226",443,"https","155.99.88.221",43760,"","TCP",10,4909,"Rostov-on-Don","Rostov Oblast","RU",47.2364,39.7139
0,"root","155.97.136.200",53,"domain","155.99.88.221",61123,"","UDP",1,435,"Salt Lake City","Utah","US",40.7855,-111.7367
0,"root","155.97.136.200",53,"domain","155.99.88.221",41047,"","UDP",1,212,"Salt Lake City","Utah","US",40.7855,-111.7367
10144,"com.android.chrome","104.70.198.41",443,"https","155.99.88.221",37474,"","TCP",10,6156,"Cambridge","Massachusetts","US",42.3626,-71.0843
10144,"com.android.chrome","104.16.153.135",443,"https","155.99.88.221",33347,"","TCP",8,5787,"San Francisco","California","US",37.7697,-122.3933
10144,"com.android.chrome","87.250.251.119",443,"https","155.99.88.221",55942,"","TCP",8,7013,"","","RU",55.7386,37.6068
10144,"com.android.chrome","155.99.88.221",56735,"","104.16.38.20",443,"https","TCP",10,746,"San Francisco","California","US",37.7697,-122.3933
10144,"com.android.chrome","144.76.152.140",443,"https","155.99.88.221",35959,"","TCP",9,4417,"","","DE",51.2993,9.4910
0,"root","155.99.88.221",5132,"","155.97.136.200",53,"domain","UDP",1,61,"Salt Lake City","Utah","US",40.7855,-111.7367
0,"root","155.97.136.200",53,"domain","155.99.88.221",6679,"osaut","UDP",1,284,"Salt Lake City","Utah","US",40.7855,-111.7367
0,"root","155.97.136.200",53,"domain","155.99.88.221",29732,"","UDP",1,259,"Salt Lake City","Utah","US",40.7855,-111.7367
0,"root","155.99.88.221",32581,"","155.97.136.200",53,"domain","UDP",1,61,"Salt Lake City","Utah","US",40.7855,-111.7367
10144,"com.android.chrome","155.99.88.221",41399,"","136.243.149.224",443,"https","TCP",4,216,"","","DE",51.2993,9.4910
10144,"com.android.chrome","104.16.38.20",443,"https","155.99.88.221",56735,"","TCP",8,6312,"San Francisco","California","US",37.7697,-122.3933
0,"root","155.97.136.200",53,"domain","155.99.88.221",16565,"","UDP",1,274,"Salt Lake City","Utah","US",40.7855,-111.7367
0,"root","155.99.88.221",58988,"","155.97.136.200",53,"domain","UDP",1,71,"Salt Lake City","Utah","US",40.7855,-111.7367
0,"root","155.97.136.200",53,"domain","155.99.88.221",43304,"","UDP",1,244,"Salt Lake City","Utah","US",40.7855,-111.7367
10144,"com.android.chrome","136.243.149.224",443,"https","155.99.88.221",41397,"","TCP",8,5421,"","","DE",51.2993,9.4910
10144,"com.android.chrome","155.99.88.221",35828,"","185.89.13.64",443,"https","TCP",15,1661,"","","RU",55.7386,37.6068
10144,"com.android.chrome","155.99.88.221",46996,"","185.89.13.61",443,"https","TCP",17,1729,"","","RU",55.7386,37.6068
0,"root","155.97.136.200",53,"domain","155.99.88.221",21042,"","UDP",1,435,"Salt Lake City","Utah","US",40.7855,-111.7367
0,"root","155.97.136.200",53,"domain","155.99.88.221",5772,"","UDP",1,166,"Salt Lake City","Utah","US",40.7855,-111.7367
10144,"com.android.chrome","185.89.12.132",443,"https","155.99.88.221",39027,"","TCP",30,11125,"","","RU",55.7386,37.6068
0,"root","155.99.88.221",63922,"","155.97.136.200",53,"domain","UDP",1,61,"Salt Lake City","Utah","US",40.7855,-111.7367
0,"root","155.99.88.221",1997,"gdp-port","155.97.136.200",53,"domain","UDP",1,63,"Salt Lake City","Utah","US",40.7855,-111.7367
0,"root","155.97.136.200",53,"domain","155.99.88.221",43445,"","UDP",1,435,"Salt Lake City","Utah","US",40.7855,-111.7367
0,"root","155.99.88.221",41884,"","155.97.136.200",53,"domain","UDP",1,58,"Salt Lake City","Utah","US",40.7855,-111.7367
10144,"com.android.chrome","155.99.88.221",38259,"","140.197.248.80",443,"https","UDP",9,2687,"Salt Lake City","Utah","US",40.6247,-111.7123
0,"root","155.97.136.200",53,"domain","155.99.88.221",53805,"","UDP",1,452,"Salt Lake City","Utah","US",40.7855,-111.7367
10144,"com.android.chrome","8.39.37.45",443,"https","155.99.88.221",39057,"","TCP",9,5337,"","","US",37.7510,-97.8220
10144,"com.android.chrome","155.99.88.221",36366,"","198.8.71.239",443,"https","TCP",7,907,"Redwood City","California","US",37.5331,-122.2471
0,"root","155.99.88.221",5772,"","155.97.136.200",53,"domain","UDP",1,66,"Salt Lake City","Utah","US",40.7855,-111.7367
10144,"com.android.chrome","185.89.13.64",443,"https","155.99.88.221",35828,"","TCP",12,10496,"","","RU",55.7386,37.6068
10144,"com.android.chrome","155.99.88.221",51603,"","77.88.55.88",443,"https","TCP",11,920,"","","RU",55.7386,37.6068
10144,"com.android.chrome","87.250.247.171",443,"https","155.99.88.221",38994,"","TCP",21,20901,"","","RU",55.7386,37.6068
0,"root","155.99.88.221",1711,"pptconference","155.97.136.200",53,"domain","UDP",1,59,"Salt Lake City","Utah","US",40.7855,-111.7367
10144,"com.android.chrome","77.88.55.88",443,"https","155.99.88.221",51604,"","TCP",8,7088,"","","RU",55.7386,37.6068
10144,"com.android.chrome","155.99.88.221",47434,"","185.89.13.28",443,"https","TCP",15,1625,"","","RU",55.7386,37.6068
10144,"com.android.chrome","155.99.88.221",33373,"","185.89.13.45",443,"https","TCP",16,1689,"","","RU",55.7386,37.6068
10144,"com.android.chrome","155.99.88.221",56141,"","54.88.79.222",443,"https","TCP",11,913,"Ashburn","Virginia","US",39.0481,-77.4728
10144,"com.android.chrome","155.99.88.221",38994,"","87.250.247.171",443,"https","TCP",19,1827,"","","RU",55.7386,37.6068
0,"root","155.97.136.200",53,"domain","155.99.88.221",13392,"","UDP",1,205,"Salt Lake City","Utah","US",40.7855,-111.7367
10144,"com.android.chrome","155.99.88.221",42568,"","216.58.193.194",443,"https","UDP",11,4672,"Mountain View","California","US",37.4192,-122.0574
0,"root","155.99.88.221",55644,"","155.97.136.200",53,"domain","UDP",1,70,"Salt Lake City","Utah","US",40.7855,-111.7367
10144,"com.android.chrome","155.99.88.221",51844,"","216.58.217.195",443,"https","UDP",3,2825,"Mountain View","California","US",37.4192,-122.0574
10144,"com.android.chrome","155.99.88.221",56745,"","213.180.204.36",443,"https","TCP",12,1439,"","","RU",55.7386,37.6068
10144,"com.android.chrome","172.217.4.162",443,"https","155.99.88.221",41020,"","UDP",4,4197,"Mountain View","California","US",37.4192,-122.0574
0,"root","155.99.88.221",33229,"","155.97.136.200",53,"domain","UDP",1,62,"Salt Lake City","Utah","US",40.7855,-111.7367
10144,"com.android.chrome","185.89.13.59",443,"https","155.99.88.221",35119,"","TCP",12,9640,"","","RU",55.7386,37.6068
10144,"com.android.chrome","155.99.88.221",41833,"","216.58.216.33",443,"https","UDP",9,4928,"Mountain View","California","US",37.4192,-122.0574
10144,"com.android.chrome","54.227.61.15",443,"https","155.99.88.221",34697,"","TCP",6,492,"Ashburn","Virginia","US",39.0481,-77.4728
0,"root","155.97.136.200",53,"domain","155.99.88.221",1997,"gdp-port","UDP",1,251,"Salt Lake City","Utah","US",40.7855,-111.7367
10144,"com.android.chrome","185.89.13.61",443,"https","155.99.88.221",46996,"","TCP",14,12705,"","","RU",55.7386,37.6068
0,"root","155.97.136.200",53,"domain","155.99.88.221",8269,"","UDP",1,445,"Salt Lake City","Utah","US",40.7855,-111.7367
0,"root","155.97.136.200",53,"domain","155.99.88.221",49591,"","UDP",1,252,"Salt Lake City","Utah","US",40.7855,-111.7367
10144,"com.android.chrome","54.183.37.232",443,"https","155.99.88.221",34988,"","TCP",9,5152,"San Jose","California","US",37.3388,-121.8914
10144,"com.android.chrome","155.99.88.221",54964,"","38.72.130.155",443,"https","TCP",15,6238,"","","US",37.7510,-97.8220
0,"root","155.99.88.221",57679,"","155.97.136.200",53,"domain","UDP",1,70,"Salt Lake City","Utah","US",40.7855,-111.7367
0,"root","155.99.88.221",15546,"","155.97.136.200",53,"domain","UDP",1,71,"Salt Lake City","Utah","US",40.7855,-111.7367
10144,"com.android.chrome","155.99.88.221",46463,"","185.89.13.29",443,"https","TCP",17,1729,"","","RU",55.7386,37.6068
0,"root","155.99.88.221",61429,"","155.97.136.200",53,"domain","UDP",1,61,"Salt Lake City","Utah","US",40.7855,-111.7367
0,"root","155.97.136.200",53,"domain","155.99.88.221",21971,"","UDP",1,494,"Salt Lake City","Utah","US",40.7855,-111.7367
0,"root","155.97.136.200",53,"domain","155.99.88.221",38764,"","UDP",1,259,"Salt Lake City","Utah","US",40.7855,-111.7367
10144,"com.android.chrome","74.119.117.100",443,"https","155.99.88.221",51987,"","TCP",13,6921,"Palo Alto","California","US",37.4429,-122.1514
10144,"com.android.chrome","155.99.88.221",45283,"","172.217.4.134",443,"https","UDP",6,4338,"Mountain View","California","US",37.4192,-122.0574
10144,"com.android.chrome","155.99.88.221",50869,"","172.217.5.66",443,"https","TCP",15,1410,"Mountain View","California","US",37.4192,-122.0574
0,"root","155.97.136.200",53,"domain","155.99.88.221",23530,"","UDP",1,243,"Salt Lake City","Utah","US",40.7855,-111.7367
10144,"com.android.chrome","155.99.88.221",41435,"","136.243.149.224",443,"https","TCP",9,1614,"","","DE",51.2993,9.4910
0,"root","155.97.136.200",53,"domain","155.99.88.221",49740,"","UDP",1,283,"Salt Lake City","Utah","US",40.7855,-111.7367
10144,"com.android.chrome","155.99.88.221",50910,"","198.23.90.62",443,"https","TCP",12,2171,"San Jose","California","US",37.3388,-121.8914
10144,"com.android.chrome","155.99.88.221",36523,"","185.89.13.46",443,"https","TCP",68,4481,"","","RU",55.7386,37.6068
10144,"com.android.chrome","155.99.88.221",39043,"","185.89.12.132",443,"https","TCP",19,6386,"","","RU",55.7386,37.6068
0,"root","155.97.136.200",53,"domain","155.99.88.221",42611,"","UDP",1,301,"Salt Lake City","Utah","US",40.7855,-111.7367
10144,"com.android.chrome","104.16.39.20",443,"https","155.99.88.221",58075,"","TCP",8,6312,"San Francisco","California","US",37.7697,-122.3933
10144,"com.android.chrome","216.58.193.194",443,"https","155.99.88.221",43309,"","TCP",12,5235,"Mountain View","California","US",37.4192,-122.0574
10144,"com.android.chrome","216.58.193.194",443,"https","155.99.88.221",43292,"","TCP",12,5022,"Mountain View","California","US",37.4192,-122.0574
0,"root","155.99.88.221",34189,"","155.97.136.200",53,"domain","UDP",1,62,"Salt Lake City","Utah","US",40.7855,-111.7367
0,"root","155.97.136.200",53,"domain","155.99.88.221",5132,"","UDP",1,435,"Salt Lake City","Utah","US",40.7855,-111.7367
0,"root","155.99.88.221",21971,"","155.97.136.200",53,"domain","UDP",1,57,"Salt Lake City","Utah","US",40.7855,-111.7367
10144,"com.android.chrome","185.89.13.61",443,"https","155.99.88.221",46998,"","TCP",2,112,"","","RU",55.7386,37.6068
0,"root","155.97.136.200",53,"domain","155.99.88.221",14895,"","UDP",1,470,"Salt Lake City","Utah","US",40.7855,-111.7367
0,"root","155.99.88.221",6679,"osaut","155.97.136.200",53,"domain","UDP",1,61,"Salt Lake City","Utah","US",40.7855,-111.7367
10144,"com.android.chrome","155.99.88.221",39057,"","8.39.37.45",443,"https","TCP",13,4581,"","","US",37.7510,-97.8220
0,"root","155.99.88.221",53641,"","155.97.136.200",53,"domain","UDP",1,73,"Salt Lake City","Utah","US",40.7855,-111.7367
10144,"com.android.chrome","185.89.13.10",443,"https","155.99.88.221",41236,"","TCP",14,13218,"","","RU",55.7386,37.6068
10144,"com.android.chrome","88.212.196.77",443,"https","155.99.88.221",47230,"","TCP",5,256,"","","RU",55.7386,37.6068
0,"root","155.97.136.200",53,"domain","155.99.88.221",41884,"","UDP",1,396,"Salt Lake City","Utah","US",40.7855,-111.7367
10144,"com.android.chrome","155.99.88.221",53839,"","74.125.28.157",443,"https","UDP",5,2954,"Mountain View","California","US",37.4192,-122.0574
0,"root","155.99.88.221",3790,"quickbooksrds","155.97.136.200",53,"domain","UDP",1,61,"Salt Lake City","Utah","US",40.7855,-111.7367
10144,"com.android.chrome","155.99.88.221",47230,"","88.212.196.77",443,"https","TCP",4,216,"","","RU",55.7386,37.6068
10022,"com.google.android.syncadapters.bookmarks","216.58.216.42",443,"https","155.99.88.221",49559,"","TCP",12,8845,"Mountain View","California","US",37.4192,-122.0574
10144,"com.android.chrome","216.58.219.42",443,"https","155.99.88.221",47106,"","UDP",9,5113,"Mountain View","California","US",37.4192,-122.0574
0,"root","155.97.136.200",53,"domain","155.99.88.221",60560,"","UDP",1,266,"Salt Lake City","Utah","US",40.7855,-111.7367
10144,"com.android.chrome","155.99.88.221",35792,"","216.58.216.14",443,"https","UDP",14,5425,"Mountain View","California","US",37.4192,-122.0574
10144,"com.android.chrome","54.88.79.222",443,"https","155.99.88.221",56141,"","TCP",9,5926,"Ashburn","Virginia","US",39.0481,-77.4728
10144,"com.android.chrome","172.217.5.78",443,"https","155.99.88.221",44418,"","TCP",45,42446,"Mountain View","California","US",37.4192,-122.0574
10144,"com.android.chrome","155.99.88.221",55942,"","87.250.251.119",443,"https","TCP",11,899,"","","RU",55.7386,37.6068
0,"root","155.97.136.200",53,"domain","155.99.88.221",34189,"","UDP",1,247,"Salt Lake City","Utah","US",40.7855,-111.7367
0,"root","155.97.136.200",53,"domain","155.99.88.221",38709,"","UDP",1,534,"Salt Lake City","Utah","US",40.7855,-111.7367
10144,"com.android.chrome","155.99.88.221",46998,"","185.89.13.61",443,"https","TCP",4,216,"","","RU",55.7386,37.6068
10144,"com.android.chrome","155.99.88.221",34988,"","54.183.37.232",443,"https","TCP",12,927,"San Jose","California","US",37.3388,-121.8914
0,"root","155.99.88.221",43445,"","155.97.136.200",53,"domain","UDP",1,61,"Salt Lake City","Utah","US",40.7855,-111.7367
0,"root","155.99.88.221",38614,"","155.97.136.200",53,"domain","UDP",1,61,"Salt Lake City","Utah","US",40.7855,-111.7367
10144,"com.android.chrome","155.99.88.221",54768,"","216.58.193.194",443,"https","UDP",7,3382,"Mountain View","California","US",37.4192,-122.0574
10144,"com.android.chrome","155.99.88.221",41236,"","185.89.13.10",443,"https","TCP",17,1729,"","","RU",55.7386,37.6068
10144,"com.android.chrome","155.99.88.221",41398,"","136.243.149.224",443,"https","TCP",11,901,"","","DE",51.2993,9.4910
10144,"com.android.chrome","62.140.247.108",443,"https","155.99.88.221",58617,"","TCP",10,7219,"Staronikolskoye","Moscow City","RU",55.5000,37.5500
10144,"com.android.chrome","216.58.217.195",443,"https","155.99.88.221",51844,"","UDP",5,4255,"Mountain View","California","US",37.4192,-122.0574
0,"root","155.97.136.200",53,"domain","155.99.88.221",39223,"","UDP",1,241,"Salt Lake City","Utah","US",40.7855,-111.7367
10001,"com.tmobile.pr.mytmobile","155.99.88.221",55519,"","74.6.34.28",80,"http","TCP",6,888,"Sunnyvale","California","US",37.4249,-122.0074
10144,"com.android.chrome","172.217.4.170",443,"https","155.99.88.221",56677,"","UDP",6,5630,"Mountain View","California","US",37.4192,-122.0574
0,"root","155.99.88.221",13392,"","155.97.136.200",53,"domain","UDP",1,64,"Salt Lake City","Utah","US",40.7855,-111.7367
10144,"com.android.chrome","216.155.194.56",80,"http","155.99.88.221",33430,"","TCP",4,746,"Sunnyvale","California","US",37.4249,-122.0074
10144,"com.android.chrome","155.99.88.221",47106,"","216.58.219.42",443,"https","UDP",7,3367,"Mountain View","California","US",37.4192,-122.0574
0,"root","155.99.88.221",47460,"","155.97.136.200",53,"domain","UDP",1,61,"Salt Lake City","Utah","US",40.7855,-111.7367
0,"root","155.99.88.221",2522,"windb","155.97.136.200",53,"domain","UDP",1,58,"Salt Lake City","Utah","US",40.7855,-111.7367
0,"root","155.99.88.221",15869,"","155.97.136.200",53,"domain","UDP",1,61,"Salt Lake City","Utah","US",40.7855,-111.7367
0,"root","155.99.88.221",39602,"","155.97.136.200",53,"domain","UDP",1,61,"Salt Lake City","Utah","US",40.7855,-111.7367
0,"root","155.97.136.200",53,"domain","155.99.88.221",26755,"","UDP",1,451,"Salt Lake City","Utah","US",40.7855,-111.7367
10144,"com.android.chrome","140.197.248.80",443,"https","155.99.88.221",38259,"","UDP",8,2831,"Salt Lake City","Utah","US",40.6247,-111.7123
10144,"com.android.chrome","74.125.28.157",443,"https","155.99.88.221",55302,"","TCP",8,4918,"Mountain View","California","US",37.4192,-122.0574
0,"root","155.97.136.200",53,"domain","155.99.88.221",58988,"","UDP",1,270,"Salt Lake City","Utah","US",40.7855,-111.7367
10144,"com.android.chrome","155.99.88.221",59217,"","69.194.244.11",443,"https","TCP",11,1114,"Redwood City","California","US",37.4914,-122.2110
10022,"com.google.android.syncadapters.bookmarks","74.125.199.188",5228,"","155.99.88.221",54270,"","TCP",1,52,"Mountain View","California","US",37.4192,-122.0574
0,"root","155.97.136.200",53,"domain","155.99.88.221",61429,"","UDP",1,451,"Salt Lake City","Utah","US",40.7855,-111.7367
10144,"com.android.chrome","155.99.88.221",43309,"","216.58.193.194",443,"https","TCP",13,1305,"Mountain View","California","US",37.4192,-122.0574
10144,"com.android.chrome","74.125.28.157",443,"https","155.99.88.221",53839,"","UDP",7,7008,"Mountain View","California","US",37.4192,-122.0574
10001,"com.tmobile.pr.mytmobile","74.6.34.28",80,"http","155.99.88.221",55518,"","TCP",5,417,"Sunnyvale","California","US",37.4249,-122.0074
10144,"com.android.chrome","172.217.5.72",443,"https","155.99.88.221",42475,"","UDP",22,23212,"Mountain View","California","US",37.4192,-122.0574
0,"root","155.99.88.221",47412,"","155.97.136.200",53,"domain","UDP",1,61,"Salt Lake City","Utah","US",40.7855,-111.7367
10144,"com.android.chrome","155.99.88.221",58074,"","104.16.39.20",443,"https","TCP",137,7305,"San Francisco","California","US",37.7697,-122.3933
10144,"com.android.chrome","155.99.88.221",44438,"","185.89.13.39",443,"https","TCP",4,216,"","","RU",55.7386,37.6068
10144,"com.android.chrome","69.194.244.11",443,"https","155.99.88.221",59216,"","TCP",8,4725,"Redwood City","California","US",37.4914,-122.2110
10144,"com.android.chrome","155.99.88.221",37475,"neckar","104.70.198.41",443,"https","TCP",10,871,"Cambridge","Massachusetts","US",42.3626,-71.0843
0,"root","155.97.136.200",53,"domain","155.99.88.221",63922,"","UDP",1,451,"Salt Lake City","Utah","US",40.7855,-111.7367
10144,"com.android.chrome","155.99.88.221",59216,"","69.194.244.11",443,"https","TCP",11,1114,"Redwood City","California","US",37.4914,-122.2110
0,"root","155.99.88.221",50670,"","155.97.136.200",53,"domain","UDP",1,60,"Salt Lake City","Utah","US",40.7855,-111.7367
10144,"com.android.chrome","104.16.153.135",443,"https","155.99.88.221",33348,"","TCP",2,92,"San Francisco","California","US",37.7697,-122.3933
0,"root","155.97.136.200",53,"domain","155.99.88.221",33229,"","UDP",1,228,"Salt Lake City","Utah","US",40.7855,-111.7367
10144,"com.android.chrome","155.99.88.221",47929,"","185.89.13.53",443,"https","TCP",16,1677,"","","RU",55.7386,37.6068
10144,"com.android.chrome","155.99.88.221",58075,"","104.16.39.20",443,"https","TCP",10,746,"San Francisco","California","US",37.7697,-122.3933
10144,"com.android.chrome","77.88.55.88",443,"https","155.99.88.221",51605,"","TCP",2,112,"","","RU",55.7386,37.6068
10144,"com.android.chrome","155.99.88.221",41397,"","136.243.149.224",443,"https","TCP",11,901,"","","DE",51.2993,9.4910
10144,"com.android.chrome","155.99.88.221",52316,"","185.89.13.58",443,"https","TCP",16,1677,"","","RU",55.7386,37.6068
10144,"com.android.chrome","185.89.13.58",443,"https","155.99.88.221",52316,"","TCP",13,11481,"","","RU",55.7386,37.6068
10144,"com.android.chrome","155.99.88.221",47228,"","88.212.196.77",443,"https","TCP",14,3274,"","","RU",55.7386,37.6068
10144,"com.android.chrome","155.99.88.221",33430,"","216.155.194.56",80,"http","TCP",5,703,"Sunnyvale","California","US",37.4249,-122.0074
10144,"com.android.chrome","216.58.216.33",443,"https","155.99.88.221",41833,"","UDP",11,6436,"Mountain View","California","US",37.4192,-122.0574
10144,"com.android.chrome","155.99.88.221",51987,"","74.119.117.100",443,"https","TCP",14,2841,"Palo Alto","California","US",37.4429,-122.1514
0,"root","155.97.136.200",53,"domain","155.99.88.221",15869,"","UDP",1,435,"Salt Lake City","Utah","US",40.7855,-111.7367
10144,"com.android.chrome","155.99.88.221",58439,"","216.58.193.194",443,"https","UDP",13,4166,"Mountain View","California","US",37.4192,-122.0574
0,"root","155.97.136.200",53,"domain","155.99.88.221",54833,"","UDP",1,246,"Salt Lake City","Utah","US",40.7855,-111.7367
10144,"com.android.chrome","136.243.149.224",443,"https","155.99.88.221",41398,"","TCP",8,5421,"","","DE",51.2993,9.4910
10144,"com.android.chrome","213.180.193.90",443,"https","155.99.88.221",33927,"","TCP",92,109892,"","","RU",55.7386,37.6068
0,"root","155.97.136.200",53,"domain","155.99.88.221",38660,"","UDP",1,229,"Salt Lake City","Utah","US",40.7855,-111.7367
0,"root","155.99.88.221",42611,"","155.97.136.200",53,"domain","UDP",1,69,"Salt Lake City","Utah","US",40.7855,-111.7367
10144,"com.android.chrome","198.23.90.62",443,"https","155.99.88.221",50910,"","TCP",10,6430,"San Jose","California","US",37.3388,-121.8914
10144,"com.android.chrome","155.99.88.221",37474,"","104.70.198.41",443,"https","TCP",15,4702,"Cambridge","Massachusetts","US",42.3626,-71.0843
10144,"com.android.chrome","213.180.204.36",443,"https","155.99.88.221",56745,"","TCP",9,7420,"","","RU",55.7386,37.6068
0,"root","155.99.88.221",21042,"","155.97.136.200",53,"domain","UDP",1,61,"Salt Lake City","Utah","US",40.7855,-111.7367
0,"root","155.99.88.221",38764,"","155.97.136.200",53,"domain","UDP",1,74,"Salt Lake City","Utah","US",40.7855,-111.7367
10144,"com.android.chrome","155.99.88.221",56736,"","104.16.38.20",443,"https","TCP",11,786,"San Francisco","California","US",37.7697,-122.3933
10144,"com.android.chrome","185.89.13.45",443,"https","155.99.88.221",33374,"","TCP",2,112,"","","RU",55.7386,37.6068
0,"root","155.99.88.221",20943,"","155.97.136.200",53,"domain","UDP",1,57,"Salt Lake City","Utah","US",40.7855,-111.7367
10022,"com.google.android.syncadapters.bookmarks","155.99.88.221",40071,"","172.217.5.74",443,"https","TCP",8,1641,"Mountain View","California","US",37.4192,-122.0574
10144,"com.android.chrome","185.89.12.132",443,"https","155.99.88.221",39026,"","TCP",40,45781,"","","RU",55.7386,37.6068
10144,"com.android.chrome","104.16.39.20",443,"https","155.99.88.221",58074,"","TCP",131,148106,"San Francisco","California","US",37.7697,-122.3933
0,"root","155.99.88.221",51541,"","155.97.136.200",53,"domain","UDP",1,76,"Salt Lake City","Utah","US",40.7855,-111.7367
0,"root","155.99.88.221",35405,"","155.97.136.200",53,"domain","UDP",1,69,"Salt Lake City","Utah","US",40.7855,-111.7367
10144,"com.android.chrome","155.99.88.221",51604,"","77.88.55.88",443,"https","TCP",11,908,"","","RU",55.7386,37.6068
10144,"com.android.chrome","155.99.88.221",55302,"","74.125.28.157",443,"https","TCP",9,922,"Mountain View","California","US",37.4192,-122.0574
0,"root","155.99.88.221",10902,"","155.97.136.200",53,"domain","UDP",1,59,"Salt Lake City","Utah","US",40.7855,-111.7367
10144,"com.android.chrome","185.89.13.45",443,"https","155.99.88.221",33373,"","TCP",13,11234,"","","RU",55.7386,37.6068
0,"root","155.97.136.200",53,"domain","155.99.88.221",57679,"","UDP",1,509,"Salt Lake City","Utah","US",40.7855,-111.7367
10144,"com.android.chrome","155.99.88.221",56677,"","172.217.4.170",443,"https","UDP",5,2951,"Mountain View","California","US",37.4192,-122.0574
0,"root","155.97.136.200",53,"domain","155.99.88.221",16509,"","UDP",1,260,"Salt Lake City","Utah","US",40.7855,-111.7367
10144,"com.android.chrome","38.72.130.155",443,"https","155.99.88.221",54911,"","TCP",8,6104,"","","US",37.7510,-97.8220
10144,"com.android.chrome","38.72.130.155",80,"http","155.99.88.221",55192,"","TCP",5,2203,"","","US",37.7510,-97.8220
10144,"com.android.chrome","155.99.88.221",43760,"","194.226.130.226",443,"https","TCP",15,3168,"Rostov-on-Don","Rostov Oblast","RU",47.2364,39.7139
0,"root","155.97.136.200",53,"domain","155.99.88.221",37593,"","UDP",1,481,"Salt Lake City","Utah","US",40.7855,-111.7367
0,"root","155.99.88.221",45097,"","155.97.136.200",53,"domain","UDP",1,61,"Salt Lake City","Utah","US",40.7855,-111.7367
-1,"kernel","155.99.88.221",443,"https","172.217.4.162",41020,"","ICMP",1,576,"Mountain View","California","US",37.4192,-122.0574
0,"root","155.97.136.200",53,"domain","155.99.88.221",55644,"","UDP",1,266,"Salt Lake City","Utah","US",40.7855,-111.7367
10144,"com.android.chrome","155.99.88.221",39027,"","185.89.12.132",443,"https","TCP",42,19751,"","","RU",55.7386,37.6068
0,"root","155.99.88.221",40610,"","155.97.136.200",53,"domain","UDP",1,56,"Salt Lake City","Utah","US",40.7855,-111.7367
0,"root","155.99.88.221",49279,"","155.97.136.200",53,"domain","UDP",1,61,"Salt Lake City","Utah","US",40.7855,-111.7367
10144,"com.android.chrome","155.99.88.221",35959,"","144.76.152.140",443,"https","TCP",12,1375,"","","DE",51.2993,9.4910
10144,"com.android.chrome","185.89.13.39",443,"https","155.99.88.221",44437,"","TCP",21,23317,"","","RU",55.7386,37.6068
0,"root","155.97.136.200",53,"domain","155.99.88.221",32581,"","UDP",1,451,"Salt Lake City","Utah","US",40.7855,-111.7367
0,"root","155.97.136.200",53,"domain","155.99.88.221",59873,"","UDP",1,283,"Salt Lake City","Utah","US",40.7855,-111.7367
0,"root","155.99.88.221",37593,"","155.97.136.200",53,"domain","UDP",1,62,"Salt Lake City","Utah","US",40.7855,-111.7367
0,"root","155.97.136.200",53,"domain","155.99.88.221",35405,"","UDP",1,257,"Salt Lake City","Utah","US",40.7855,-111.7367
0,"root","155.97.136.200",53,"domain","155.99.88.221",60242,"","UDP",1,316,"Salt Lake City","Utah","US",40.7855,-111.7367
10144,"com.android.chrome","155.99.88.221",43763,"","194.226.130.226",443,"https","TCP",5,280,"Rostov-on-Don","Rostov Oblast","RU",47.2364,39.7139
10144,"com.android.chrome","198.8.71.239",443,"https","155.99.88.221",36367,"","TCP",7,3085,"Redwood City","California","US",37.5331,-122.2471
10144,"com.android.chrome","77.88.55.88",443,"https","155.99.88.221",51603,"","TCP",8,7088,"","","RU",55.7386,37.6068
10022,"com.google.android.syncadapters.bookmarks","155.99.88.221",40070,"","172.217.5.74",443,"https","TCP",13,2184,"Mountain View","California","US",37.4192,-122.0574
0,"root","155.99.88.221",41047,"","155.97.136.200",53,"domain","UDP",1,60,"Salt Lake City","Utah","US",40.7855,-111.7367
10144,"com.android.chrome","172.217.5.66",443,"https","155.99.88.221",50869,"","TCP",11,4936,"Mountain View","California","US",37.4192,-122.0574
10144,"com.android.chrome","194.226.130.226",443,"https","155.99.88.221",43763,"","TCP",3,172,"Rostov-on-Don","Rostov Oblast","RU",47.2364,39.7139
10144,"com.android.chrome","104.70.198.41",443,"https","155.99.88.221",37475,"neckar","TCP",7,5169,"Cambridge","Massachusetts","US",42.3626,-71.0843
0,"root","155.97.136.200",53,"domain","155.99.88.221",12583,"","UDP",1,254,"Salt Lake City","Utah","US",40.7855,-111.7367
10144,"com.android.chrome","155.99.88.221",51658,"","162.208.20.184",443,"https","TCP",13,1439,"San Francisco","California","US",37.7909,-122.4017
0,"root","155.99.88.221",14895,"","155.97.136.200",53,"domain","UDP",1,59,"Salt Lake City","Utah","US",40.7855,-111.7367
10144,"com.android.chrome","155.99.88.221",44437,"","185.89.13.39",443,"https","TCP",24,2093,"","","RU",55.7386,37.6068
10144,"com.android.chrome","185.89.13.39",443,"https","155.99.88.221",44438,"","TCP",2,112,"","","RU",55.7386,37.6068
10144,"com.android.chrome","155.99.88.221",43292,"","216.58.193.194",443,"https","TCP",13,1301,"Mountain View","California","US",37.4192,-122.0574
0,"root","155.99.88.221",53805,"","155.97.136.200",53,"domain","UDP",1,60,"Salt Lake City","Utah","US",40.7855,-111.7367
0,"root","155.99.88.221",43304,"","155.97.136.200",53,"domain","UDP",1,59,"Salt Lake City","Utah","US",40.7855,-111.7367
10144,"com.android.chrome","198.8.71.239",443,"https","155.99.88.221",36366,"","TCP",7,3085,"Redwood City","California","US",37.5331,-122.2471
0,"root","155.97.136.200",53,"domain","155.99.88.221",51541,"","UDP",1,264,"Salt Lake City","Utah","US",40.7855,-111.7367
0,"root","155.99.88.221",4663,"noteit","155.97.136.200",53,"domain","UDP",1,61,"Salt Lake City","Utah","US",40.7855,-111.7367
0,"root","155.97.136.200",53,"domain","155.99.88.221",1711,"pptconference","UDP",1,344,"Salt Lake City","Utah","US",40.7855,-111.7367
10144,"com.android.chrome","155.99.88.221",56142,"","54.88.79.222",443,"https","TCP",11,901,"Ashburn","Virginia","US",39.0481,-77.4728
