"uID","OriginIP","OriginPort","OriginPortName","DestinationIP","DestinationPort","DestPortName","Protocol","TotalPackets","TotalBytes"
10022,"192.168.0.19",54243,"tba","216.58.217.46",443,"tba","TCP",10,1668,"Mountain View","US"
10144,"192.168.0.19",57233,"tba","216.58.192.14",443,"tba","TCP",21,2673,"Mountain View","US"
10022,"216.58.217.46",443,"tba","192.168.0.19",54266,"tba","TCP",9,5272,"Mountain View","US"
10144,"216.58.192.14",443,"tba","192.168.0.19",57233,"tba","TCP",20,6780,"Mountain View","US"
0,"192.168.0.19",8133,"tba","192.168.0.1",53,"tba","UDP",1,63,"",""
0,"192.168.0.19",18752,"tba","192.168.0.1",53,"tba","UDP",1,68,"",""
0,"192.168.0.1",53,"tba","192.168.0.19",64372,"tba","UDP",1,130,"",""
10045,"192.168.0.1",53,"tba","192.168.0.19",49828,"tba","UDP",1,130,"",""
10022,"172.217.4.170",443,"tba","192.168.0.19",46046,"tba","TCP",10,5253,"Mountain View","US"
0,"192.168.0.1",53,"tba","192.168.0.19",25176,"tba","UDP",1,130,"",""
10045,"192.168.0.19",58374,"tba","192.168.0.1",53,"tba","UDP",1,64,"",""
0,"192.168.0.19",54065,"tba","192.168.0.1",53,"tba","UDP",1,60,"",""
10022,"192.168.0.19",58792,"tba","216.58.217.42",443,"tba","TCP",26,2937,"Mountain View","US"
10022,"192.168.0.19",48188,"tba","216.58.217.10",443,"tba","TCP",14,2433,"Mountain View","US"
0,"192.168.0.19",47182,"tba","192.168.0.1",53,"tba","UDP",1,70,"",""
0,"192.168.0.1",53,"tba","192.168.0.19",22261,"tba","UDP",1,128,"",""
10022,"192.168.0.19",58825,"tba","216.58.217.42",443,"tba","TCP",13,2312,"Mountain View","US"
10001,"192.168.0.19",36670,"tba","65.52.232.150",443,"tba","TCP",3,180,"Chicago","US"
10112,"192.168.0.19",48533,"tba","216.58.193.68",443,"tba","TCP",13,1391,"Mountain View","US"
0,"192.168.0.1",53,"tba","192.168.0.19",27483,"tba","UDP",1,131,"",""
0,"192.168.0.19",31732,"tba","192.168.0.1",53,"tba","UDP",1,59,"",""
0,"192.168.0.1",53,"tba","192.168.0.19",38246,"tba","UDP",1,112,"",""
0,"192.168.0.1",53,"tba","192.168.0.19",47182,"tba","UDP",1,130,"",""
0,"192.168.0.19",64421,"tba","192.168.0.1",53,"tba","UDP",1,72,"",""
0,"192.168.0.19",60608,"tba","192.168.0.1",53,"tba","UDP",1,60,"",""
0,"192.168.0.1",53,"tba","192.168.0.19",6462,"tba","UDP",1,130,"",""
10022,"192.168.0.19",58826,"tba","216.58.217.42",443,"tba","TCP",10,1980,"Mountain View","US"
10022,"216.58.217.46",443,"tba","192.168.0.19",54241,"tba","TCP",12,1269,"Mountain View","US"
0,"192.168.0.19",24477,"tba","192.168.0.1",53,"tba","UDP",1,73,"",""
10022,"192.168.0.19",58793,"tba","216.58.217.42",443,"tba","TCP",17,9795,"Mountain View","US"
10067,"216.58.217.46",443,"tba","192.168.0.19",54234,"tba","TCP",40,29629,"Mountain View","US"
0,"192.168.0.19",16684,"tba","192.168.0.1",53,"tba","UDP",1,63,"",""
0,"192.168.0.19",35656,"tba","192.168.0.1",53,"tba","UDP",1,72,"",""
0,"192.168.0.1",53,"tba","192.168.0.19",17284,"tba","UDP",1,114,"",""
10144,"192.168.0.19",44311,"tba","216.58.193.100",443,"tba","TCP",17,1486,"Mountain View","US"
10022,"216.58.217.46",443,"tba","192.168.0.19",54270,"tba","TCP",9,1417,"Mountain View","US"
10022,"172.217.4.170",443,"tba","192.168.0.19",46048,"tba","TCP",10,5157,"Mountain View","US"
0,"192.168.0.1",53,"tba","192.168.0.19",39943,"tba","UDP",1,76,"",""
10022,"192.168.0.19",58819,"tba","216.58.217.42",443,"tba","TCP",10,1761,"Mountain View","US"
10022,"192.168.0.19",54230,"tba","216.58.217.46",443,"tba","TCP",15,1877,"Mountain View","US"
0,"192.168.0.19",4269,"tba","192.168.0.1",53,"tba","UDP",1,65,"",""
10022,"192.168.0.19",58818,"tba","216.58.217.42",443,"tba","TCP",13,2312,"Mountain View","US"
0,"192.168.0.19",2483,"tba","192.168.0.1",53,"tba","UDP",1,72,"",""
0,"192.168.0.1",53,"tba","192.168.0.19",11537,"tba","UDP",1,76,"",""
0,"192.168.0.19",38246,"tba","192.168.0.1",53,"tba","UDP",1,72,"",""
0,"192.168.0.19",20000,"tba","192.168.0.1",53,"tba","UDP",1,64,"",""
10022,"192.168.0.19",58798,"tba","216.58.217.42",443,"tba","TCP",14,3545,"Mountain View","US"
0,"192.168.0.1",53,"tba","192.168.0.19",60608,"tba","UDP",1,76,"",""
10067,"192.168.0.19",58789,"tba","216.58.217.42",443,"tba","TCP",15,3457,"Mountain View","US"
10045,"192.168.0.19",63591,"tba","192.168.0.1",53,"tba","UDP",1,64,"",""
0,"192.168.0.19",52629,"tba","192.168.0.1",53,"tba","UDP",1,64,"",""
10022,"192.168.0.19",54270,"tba","216.58.217.46",443,"tba","TCP",10,1631,"Mountain View","US"
10022,"192.168.0.19",37360,"tba","216.58.195.78",443,"tba","TCP",12,1745,"Mountain View","US"
10144,"192.168.0.19",58807,"tba","216.58.217.42",443,"tba","TCP",22,1898,"Mountain View","US"
0,"192.168.0.19",1729,"tba","192.168.0.1",53,"tba","UDP",1,63,"",""
0,"192.168.0.1",53,"tba","192.168.0.19",1729,"tba","UDP",1,107,"",""
10112,"192.168.0.19",48535,"tba","216.58.193.68",443,"tba","TCP",10,1372,"Mountain View","US"
0,"192.168.0.19",25254,"tba","192.168.0.1",53,"tba","UDP",1,64,"",""
10022,"192.168.0.19",54247,"tba","216.58.217.46",443,"tba","TCP",10,1590,"Mountain View","US"
10022,"216.58.217.46",443,"tba","192.168.0.19",54230,"tba","TCP",11,5518,"Mountain View","US"
0,"192.168.0.1",53,"tba","192.168.0.19",1638,"tba","UDP",1,131,"",""
10144,"216.58.217.42",443,"tba","192.168.0.19",58807,"tba","TCP",17,7882,"Mountain View","US"
0,"192.168.0.19",27644,"tba","192.168.0.1",53,"tba","UDP",1,64,"",""
10001,"192.168.0.19",36659,"tba","65.52.232.150",443,"tba","TCP",3,180,"Chicago","US"
10022,"192.168.0.19",48195,"tba","216.58.217.10",443,"tba","TCP",12,2192,"Mountain View","US"
0,"192.168.0.1",53,"tba","192.168.0.19",2483,"tba","UDP",1,112,"",""
0,"192.168.0.1",53,"tba","192.168.0.19",2125,"tba","UDP",1,76,"",""
10114,"216.58.217.46",443,"tba","192.168.0.19",54232,"tba","TCP",17,7313,"Mountain View","US"
10022,"216.58.217.42",443,"tba","192.168.0.19",58785,"tba","TCP",47,59602,"Mountain View","US"
10114,"216.58.217.46",443,"tba","192.168.0.19",54256,"tba","TCP",8,1229,"Mountain View","US"
10022,"192.168.0.19",58796,"tba","216.58.217.42",443,"tba","TCP",13,2344,"Mountain View","US"
0,"192.168.0.19",63132,"tba","192.168.0.1",53,"tba","UDP",1,63,"",""
0,"192.168.0.19",59841,"tba","192.168.0.1",53,"tba","UDP",1,65,"",""
10022,"216.58.217.46",443,"tba","192.168.0.19",54227,"tba","TCP",11,5689,"Mountain View","US"
0,"192.168.0.19",35951,"tba","192.168.0.1",53,"tba","UDP",1,64,"",""
10022,"192.168.0.19",46047,"tba","172.217.4.170",443,"tba","TCP",11,1863,"Mountain View","US"
0,"192.168.0.1",53,"tba","192.168.0.19",7867,"tba","UDP",1,118,"",""
10114,"192.168.0.19",54256,"tba","216.58.217.46",443,"tba","TCP",11,2150,"Mountain View","US"
10022,"216.58.217.42",443,"tba","192.168.0.19",58825,"tba","TCP",10,4752,"Mountain View","US"
10001,"192.168.0.19",36669,"tba","65.52.232.150",443,"tba","TCP",3,180,"Chicago","US"
10144,"192.168.0.19",59393,"tba","216.58.193.100",443,"tba","UDP",4,1897,"Mountain View","US"
10022,"216.58.217.42",443,"tba","192.168.0.19",58818,"tba","TCP",10,4784,"Mountain View","US"
0,"192.168.0.19",6462,"tba","192.168.0.1",53,"tba","UDP",1,64,"",""
0,"192.168.0.1",53,"tba","192.168.0.19",35951,"tba","UDP",1,130,"",""
10144,"192.168.0.19",43350,"tba","192.168.0.1",53,"tba","UDP",1,56,"",""
10022,"216.58.217.42",443,"tba","192.168.0.19",58819,"tba","TCP",8,980,"Mountain View","US"
10114,"192.168.0.19",54246,"tba","216.58.217.46",443,"tba","TCP",11,2150,"Mountain View","US"
10022,"216.58.217.46",443,"tba","192.168.0.19",54275,"tba","TCP",9,1361,"Mountain View","US"
10067,"216.58.217.42",443,"tba","192.168.0.19",58789,"tba","TCP",12,5245,"Mountain View","US"
0,"192.168.0.1",53,"tba","192.168.0.19",34759,"tba","UDP",1,109,"",""
0,"192.168.0.19",29685,"tba","192.168.0.1",53,"tba","UDP",1,65,"",""
0,"192.168.0.19",2125,"tba","192.168.0.1",53,"tba","UDP",1,60,"",""
10144,"216.58.193.100",443,"tba","192.168.0.19",44311,"tba","TCP",14,5106,"Mountain View","US"
10114,"192.168.0.19",54269,"tba","216.58.217.46",443,"tba","TCP",9,2068,"Mountain View","US"
0,"192.168.0.19",9651,"tba","192.168.0.1",53,"tba","UDP",1,63,"",""
10045,"192.168.0.1",53,"tba","192.168.0.19",56943,"tba","UDP",1,130,"",""
-1,"192.168.0.1",0,"tba","224.0.0.1",0,"tba","2",128,4608,"",""
10022,"216.58.217.42",443,"tba","192.168.0.19",58796,"tba","TCP",10,5072,"Mountain View","US"
10114,"216.58.217.46",443,"tba","192.168.0.19",54245,"tba","TCP",8,1229,"Mountain View","US"
10022,"192.168.0.19",46046,"tba","172.217.4.170",443,"tba","TCP",11,1991,"Mountain View","US"
10114,"192.168.0.19",54245,"tba","216.58.217.46",443,"tba","TCP",11,2150,"Mountain View","US"
10144,"192.168.0.19",7550,"tba","192.168.0.1",53,"tba","UDP",1,55,"",""
0,"192.168.0.1",53,"tba","192.168.0.19",16004,"tba","UDP",1,76,"",""
10022,"74.125.202.188",5228,"tba","192.168.0.19",33669,"tba","TCP",30,6504,"Mountain View","US"
10114,"216.58.217.46",443,"tba","192.168.0.19",54261,"tba","TCP",8,1229,"Mountain View","US"
10001,"52.85.83.68",80,"tba","192.168.0.19",38006,"tba","TCP",4,1623,"Seattle","US"
0,"192.168.0.19",10337,"tba","192.168.0.1",53,"tba","UDP",1,65,"",""
0,"192.168.0.19",64372,"tba","192.168.0.1",53,"tba","UDP",1,64,"",""
10001,"192.168.0.19",36658,"tba","65.52.232.150",443,"tba","TCP",3,180,"Chicago","US"
10022,"192.168.0.19",48196,"tba","216.58.217.10",443,"tba","TCP",9,1993,"Mountain View","US"
10001,"192.168.0.19",36653,"tba","65.52.232.150",443,"tba","TCP",3,180,"Chicago","US"
0,"192.168.0.19",43421,"tba","192.168.0.1",53,"tba","UDP",1,73,"",""
10114,"192.168.0.19",54261,"tba","216.58.217.46",443,"tba","TCP",11,2150,"Mountain View","US"
0,"192.168.0.1",53,"tba","192.168.0.19",63241,"tba","UDP",1,121,"",""
10022,"216.58.217.42",443,"tba","192.168.0.19",58792,"tba","TCP",40,47620,"Mountain View","US"
10022,"216.58.217.46",443,"tba","192.168.0.19",54233,"tba","TCP",18,1890,"Mountain View","US"
10144,"192.168.0.19",42836,"tba","192.168.0.1",53,"tba","UDP",1,53,"",""
0,"192.168.0.19",46286,"tba","192.168.0.1",53,"tba","UDP",1,60,"",""
0,"192.168.0.19",29988,"tba","192.168.0.1",53,"tba","UDP",1,66,"",""
10114,"216.58.217.46",443,"tba","192.168.0.19",54246,"tba","TCP",9,1281,"Mountain View","US"
0,"192.168.0.1",53,"tba","192.168.0.19",29685,"tba","UDP",1,131,"",""
0,"192.168.0.1",53,"tba","192.168.0.19",52629,"tba","UDP",1,130,"",""
0,"192.168.0.19",61710,"tba","192.168.0.1",53,"tba","UDP",1,72,"",""
0,"192.168.0.1",53,"tba","192.168.0.19",61710,"tba","UDP",1,112,"",""
10022,"216.58.217.10",443,"tba","192.168.0.19",48196,"tba","TCP",8,2537,"Mountain View","US"
0,"192.168.0.1",53,"tba","192.168.0.19",4269,"tba","UDP",1,131,"",""
10022,"192.168.0.19",58803,"tba","216.58.217.42",443,"tba","TCP",13,2312,"Mountain View","US"
10022,"216.58.217.34",443,"tba","192.168.0.19",53863,"tba","TCP",8,5233,"Mountain View","US"
10022,"216.58.217.10",443,"tba","192.168.0.19",48188,"tba","TCP",10,5120,"Mountain View","US"
10114,"192.168.0.19",54248,"tba","216.58.217.46",443,"tba","TCP",11,2150,"Mountain View","US"
10045,"192.168.0.1",53,"tba","192.168.0.19",63591,"tba","UDP",1,130,"",""
10022,"192.168.0.19",54233,"tba","216.58.217.46",443,"tba","TCP",18,12959,"Mountain View","US"
10001,"192.168.0.19",36647,"tba","65.52.232.150",443,"tba","TCP",3,180,"Chicago","US"
0,"192.168.0.1",53,"tba","192.168.0.19",16684,"tba","UDP",1,107,"",""
10022,"192.168.0.19",54227,"tba","216.58.217.46",443,"tba","TCP",15,2044,"Mountain View","US"
0,"192.168.0.19",27483,"tba","192.168.0.1",53,"tba","UDP",1,56,"",""
10022,"192.168.0.19",48164,"tba","216.58.217.10",443,"tba","TCP",13,1657,"Mountain View","US"
0,"192.168.0.1",53,"tba","192.168.0.19",24477,"tba","UDP",1,114,"",""
10022,"216.58.217.42",443,"tba","192.168.0.19",58794,"tba","TCP",44,52298,"Mountain View","US"
0,"192.168.0.1",53,"tba","192.168.0.19",42205,"tba","UDP",1,86,"",""
0,"192.168.0.1",53,"tba","192.168.0.19",59841,"tba","UDP",1,131,"",""
0,"192.168.0.1",53,"tba","192.168.0.19",53055,"tba","UDP",1,130,"",""
10022,"216.58.217.10",443,"tba","192.168.0.19",48164,"tba","TCP",9,5075,"Mountain View","US"
0,"192.168.0.1",53,"tba","192.168.0.19",9651,"tba","UDP",1,109,"",""
0,"192.168.0.19",38333,"tba","192.168.0.1",53,"tba","UDP",1,60,"",""
10144,"216.58.193.100",443,"tba","192.168.0.19",59393,"tba","UDP",4,1782,"Mountain View","US"
10114,"216.58.217.46",443,"tba","192.168.0.19",54223,"tba","TCP",11,5742,"Mountain View","US"
0,"192.168.0.1",53,"tba","192.168.0.19",20000,"tba","UDP",1,178,"",""
0,"192.168.0.1",53,"tba","192.168.0.19",62601,"tba","UDP",1,107,"",""
0,"192.168.0.1",53,"tba","192.168.0.19",54065,"tba","UDP",1,76,"",""
10114,"216.58.217.46",443,"tba","192.168.0.19",54250,"tba","TCP",9,1281,"Mountain View","US"
0,"192.168.0.1",53,"tba","192.168.0.19",35656,"tba","UDP",1,112,"",""
0,"192.168.0.1",53,"tba","192.168.0.19",63132,"tba","UDP",1,107,"",""
10114,"216.58.217.46",443,"tba","192.168.0.19",54269,"tba","TCP",9,1305,"Mountain View","US"
0,"192.168.0.19",27762,"tba","192.168.0.1",53,"tba","UDP",1,72,"",""
0,"192.168.0.19",11537,"tba","192.168.0.1",53,"tba","UDP",1,60,"",""
0,"192.168.0.1",53,"tba","192.168.0.19",29988,"tba","UDP",1,146,"",""
0,"192.168.0.19",62601,"tba","192.168.0.1",53,"tba","UDP",1,63,"",""
0,"192.168.0.19",34759,"tba","192.168.0.1",53,"tba","UDP",1,58,"",""
10114,"192.168.0.19",54223,"tba","216.58.217.46",443,"tba","TCP",15,1747,"Mountain View","US"
0,"192.168.0.1",53,"tba","192.168.0.19",15165,"tba","UDP",1,112,"",""
0,"192.168.0.19",17234,"tba","192.168.0.1",53,"tba","UDP",1,63,"",""
0,"192.168.0.1",53,"tba","192.168.0.19",27762,"tba","UDP",1,112,"",""
10114,"216.58.217.46",443,"tba","192.168.0.19",54248,"tba","TCP",9,1281,"Mountain View","US"
10144,"192.168.0.1",53,"tba","192.168.0.19",7550,"tba","UDP",1,130,"",""
10001,"192.168.0.19",38006,"tba","52.85.83.68",80,"tba","TCP",6,468,"Seattle","US"
0,"192.168.0.1",53,"tba","192.168.0.19",8133,"tba","UDP",1,107,"",""
0,"192.168.0.19",25176,"tba","192.168.0.1",53,"tba","UDP",1,64,"",""
0,"192.168.0.1",53,"tba","192.168.0.19",43421,"tba","UDP",1,139,"",""
0,"192.168.0.19",1638,"tba","192.168.0.1",53,"tba","UDP",1,65,"",""
10022,"192.168.0.19",58794,"tba","216.58.217.42",443,"tba","TCP",28,3041,"Mountain View","US"
0,"192.168.0.19",22261,"tba","192.168.0.1",53,"tba","UDP",1,53,"",""
10114,"192.168.0.19",54232,"tba","216.58.217.46",443,"tba","TCP",22,4023,"Mountain View","US"
10001,"192.168.0.19",36648,"tba","65.52.232.150",443,"tba","TCP",3,180,"Chicago","US"
0,"192.168.0.19",15165,"tba","192.168.0.1",53,"tba","UDP",1,72,"",""
-1,"216.58.217.46",80,"tba","192.168.0.19",43939,"tba","TCP",2,104,"Mountain View","US"
0,"192.168.0.1",53,"tba","192.168.0.19",44670,"tba","UDP",1,107,"",""
0,"192.168.0.1",53,"tba","192.168.0.19",38333,"tba","UDP",1,231,"",""
10001,"192.168.0.19",38007,"tba","52.85.83.68",80,"tba","TCP",7,522,"Seattle","US"
0,"192.168.0.19",17284,"tba","192.168.0.1",53,"tba","UDP",1,63,"",""
0,"192.168.0.19",16004,"tba","192.168.0.1",53,"tba","UDP",1,60,"",""
10001,"52.85.83.68",80,"tba","192.168.0.19",38007,"tba","TCP",5,1749,"Seattle","US"
0,"192.168.0.19",57449,"tba","192.168.0.1",53,"tba","UDP",1,63,"",""
0,"192.168.0.1",53,"tba","192.168.0.19",64421,"tba","UDP",1,112,"",""
0,"192.168.0.1",53,"tba","192.168.0.19",18752,"tba","UDP",1,84,"",""
10022,"192.168.0.19",58785,"tba","216.58.217.42",443,"tba","TCP",31,2905,"Mountain View","US"
10045,"192.168.0.19",49828,"tba","192.168.0.1",53,"tba","UDP",1,64,"",""
0,"192.168.0.19",7867,"tba","192.168.0.1",53,"tba","UDP",1,66,"",""
10022,"216.58.217.46",443,"tba","192.168.0.19",54247,"tba","TCP",9,1470,"Mountain View","US"
0,"192.168.0.19",63241,"tba","192.168.0.1",53,"tba","UDP",1,70,"",""
10022,"192.168.0.19",54275,"tba","216.58.217.46",443,"tba","TCP",10,1668,"Mountain View","US"
10022,"192.168.0.19",33669,"tba","74.125.202.188",5228,"tba","TCP",39,3211,"Mountain View","US"
0,"192.168.0.1",53,"tba","192.168.0.19",39058,"tba","UDP",1,117,"",""
0,"192.168.0.1",53,"tba","192.168.0.19",62271,"tba","UDP",1,107,"",""
10144,"192.168.0.1",53,"tba","192.168.0.19",42836,"tba","UDP",1,128,"",""
10022,"216.58.217.42",443,"tba","192.168.0.19",58826,"tba","TCP",7,908,"Mountain View","US"
10045,"192.168.0.19",56943,"tba","192.168.0.1",53,"tba","UDP",1,64,"",""
10022,"192.168.0.19",46048,"tba","172.217.4.170",443,"tba","TCP",12,1691,"Mountain View","US"
10022,"192.168.0.19",54241,"tba","216.58.217.46",443,"tba","TCP",14,10041,"Mountain View","US"
10022,"216.58.195.78",443,"tba","192.168.0.19",37360,"tba","TCP",10,5321,"Mountain View","US"
0,"192.168.0.1",53,"tba","192.168.0.19",27644,"tba","UDP",1,130,"",""
0,"192.168.0.19",39943,"tba","192.168.0.1",53,"tba","UDP",1,60,"",""
10112,"216.58.193.68",443,"tba","192.168.0.19",48535,"tba","TCP",9,1521,"Mountain View","US"
10045,"192.168.0.1",53,"tba","192.168.0.19",18909,"tba","UDP",1,130,"",""
0,"192.168.0.19",53055,"tba","192.168.0.1",53,"tba","UDP",1,55,"",""
10022,"216.58.217.42",443,"tba","192.168.0.19",58793,"tba","TCP",12,5309,"Mountain View","US"
0,"192.168.0.19",39058,"tba","192.168.0.1",53,"tba","UDP",1,66,"",""
0,"192.168.0.1",53,"tba","192.168.0.19",57449,"tba","UDP",1,107,"",""
0,"192.168.0.1",53,"tba","192.168.0.19",46286,"tba","UDP",1,111,"",""
0,"192.168.0.1",53,"tba","192.168.0.19",10337,"tba","UDP",1,131,"",""
10022,"216.58.217.46",443,"tba","192.168.0.19",54243,"tba","TCP",9,1382,"Mountain View","US"
10112,"216.58.193.68",443,"tba","192.168.0.19",48533,"tba","TCP",10,5271,"Mountain View","US"
0,"192.168.0.19",62271,"tba","192.168.0.1",53,"tba","UDP",1,63,"",""
1000,"192.168.0.19",43939,"tba","216.58.217.46",80,"tba","TCP",1,64,"Mountain View","US"
10045,"192.168.0.19",18909,"tba","192.168.0.1",53,"tba","UDP",1,64,"",""
10114,"192.168.0.19",54250,"tba","216.58.217.46",443,"tba","TCP",11,2150,"Mountain View","US"
0,"192.168.0.1",53,"tba","192.168.0.19",25254,"tba","UDP",1,130,"",""
10022,"172.217.4.170",443,"tba","192.168.0.19",46047,"tba","TCP",10,5093,"Mountain View","US"
10022,"192.168.0.19",53863,"tba","216.58.217.34",443,"tba","TCP",11,1250,"Mountain View","US"
10022,"216.58.217.42",443,"tba","192.168.0.19",58798,"tba","TCP",12,5558,"Mountain View","US"
10022,"216.58.217.10",443,"tba","192.168.0.19",48195,"tba","TCP",9,5761,"Mountain View","US"
10067,"192.168.0.19",54234,"tba","216.58.217.46",443,"tba","TCP",45,12024,"Mountain View","US"
0,"192.168.0.19",44670,"tba","192.168.0.1",53,"tba","UDP",1,63,"",""
0,"192.168.0.1",53,"tba","192.168.0.19",17234,"tba","UDP",1,115,"",""
0,"192.168.0.19",58500,"tba","192.168.0.1",53,"tba","UDP",1,65,"",""
0,"192.168.0.19",42205,"tba","192.168.0.1",53,"tba","UDP",1,70,"",""
10045,"192.168.0.1",53,"tba","192.168.0.19",58374,"tba","UDP",1,130,"",""
10001,"192.168.0.19",36654,"tba","65.52.232.150",443,"tba","TCP",3,180,"Chicago","US"
0,"192.168.0.1",53,"tba","192.168.0.19",58500,"tba","UDP",1,105,"",""
10022,"216.58.217.42",443,"tba","192.168.0.19",58803,"tba","TCP",10,4608,"Mountain View","US"
0,"192.168.0.1",53,"tba","192.168.0.19",31732,"tba","UDP",1,75,"",""
10022,"192.168.0.19",54266,"tba","216.58.217.46",443,"tba","TCP",12,1793,"Mountain View","US"
10144,"192.168.0.1",53,"tba","192.168.0.19",43350,"tba","UDP",1,131,"",""
