uID,"AppName","OriginIP",OriginPort,"OriginPortName","DestinationIP",DestinationPort,"DestPortName","Protocol",TotalPackets,TotalBytes,"RemoteCity","RemoteRegion","RemoteCountry"
-1,"","192.168.29.102",34745,"","192.168.29.1",5353,"mdns","ICMP",1,90,"","",""
10144,"com.android.chrome","216.58.217.46",443,"https","192.168.0.19",54352,"","TCP",12,6992,"Mountain View","California","US"
10144,"com.android.chrome","216.58.192.14",443,"https","192.168.0.19",57233,"","TCP",20,6780,"Mountain View","California","US"
10144,"com.android.chrome","192.168.0.19",45674,"","151.101.69.140",443,"https","TCP",9,803,"San Francisco","California","US"
0,"","192.168.0.19",8133,"","192.168.0.1",53,"domain","UDP",1,63,"","",""
10144,"com.android.chrome","54.175.69.3",443,"https","192.168.0.19",59500,"","TCP",9,5401,"Ashburn","Virginia","US"
0,"","192.168.0.19",29955,"","192.168.0.1",53,"domain","UDP",1,70,"","",""
10022,"com.google.android.syncadapters.bookmarks","192.168.0.19",54230,"","216.58.217.46",443,"https","TCP",15,1877,"Mountain View","California","US"
0,"","192.168.0.1",53,"domain","192.168.0.19",64372,"","UDP",1,130,"","",""
10022,"com.google.android.syncadapters.bookmarks","192.168.0.19",48195,"","216.58.217.10",443,"https","TCP",12,2192,"Mountain View","California","US"
10152,"com.snapchat.android","216.58.217.49",443,"https","192.168.0.19",36971,"","TCP",10,4547,"Mountain View","California","US"
10022,"com.google.android.syncadapters.bookmarks","216.58.217.10",443,"https","192.168.0.19",48196,"","TCP",8,2537,"Mountain View","California","US"
10144,"com.android.chrome","192.168.0.19",45661,"","151.101.69.140",443,"https","TCP",9,807,"San Francisco","California","US"
10144,"com.android.chrome","192.168.0.19",60135,"","72.21.91.70",443,"https","TCP",9,796,"","","US"
10022,"com.google.android.syncadapters.bookmarks","216.58.217.46",443,"https","192.168.0.19",54356,"","TCP",10,1333,"Mountain View","California","US"
10144,"com.android.chrome","151.101.69.140",443,"https","192.168.0.19",45718,"","TCP",3,172,"San Francisco","California","US"
0,"","192.168.0.1",53,"domain","192.168.0.19",27483,"","UDP",1,131,"","",""
10067,"com.android.vending","192.168.0.19",48288,"","216.58.217.10",443,"https","TCP",16,2960,"Mountain View","California","US"
10144,"com.android.chrome","151.101.69.140",443,"https","192.168.0.19",45661,"","TCP",5,4130,"San Francisco","California","US"
10144,"com.android.chrome","192.168.0.19",45668,"","151.101.69.140",443,"https","TCP",9,802,"San Francisco","California","US"
0,"","192.168.0.19",64874,"","192.168.0.1",53,"domain","UDP",1,64,"","",""
10144,"com.android.chrome","192.168.0.19",45703,"","151.101.69.140",443,"https","TCP",9,807,"San Francisco","California","US"
0,"","192.168.0.19",46503,"","192.168.0.1",53,"domain","UDP",2,126,"","",""
10152,"com.snapchat.android","216.58.217.49",443,"https","192.168.0.19",36970,"","TCP",18,7512,"Mountain View","California","US"
10022,"com.google.android.syncadapters.bookmarks","192.168.0.19",48291,"","216.58.217.10",443,"https","TCP",10,2289,"Mountain View","California","US"
-1,"","192.168.29.102",515,"printer","192.168.29.1",49104,"","TCP",1,40,"","",""
10152,"com.snapchat.android","216.58.217.49",443,"https","192.168.0.19",24716,"","UDP",9,9436,"Mountain View","California","US"
10001,"com.tmobile.pr.mytmobile","192.168.0.19",38006,"","52.85.83.68",80,"http","TCP",6,468,"Seattle","Washington","US"
10144,"com.android.chrome","199.96.57.6",443,"https","192.168.0.19",51089,"","TCP",9,4772,"San Francisco","California","US"
10144,"com.android.chrome","192.168.0.19",54300,"","216.58.217.46",443,"https","TCP",19,1738,"Mountain View","California","US"
10114,"com.google.android.videos","216.58.217.46",443,"https","192.168.0.19",54248,"","TCP",9,1281,"Mountain View","California","US"
0,"","192.168.0.1",53,"domain","192.168.0.19",52393,"","UDP",1,105,"","",""
10144,"com.android.chrome","151.101.69.140",443,"https","192.168.0.19",45704,"","TCP",5,4130,"San Francisco","California","US"
10144,"com.android.chrome","192.168.0.19",45665,"","151.101.69.140",443,"https","TCP",9,807,"San Francisco","California","US"
10022,"com.google.android.syncadapters.bookmarks","192.168.0.19",58819,"","216.58.217.42",443,"https","TCP",10,1761,"Mountain View","California","US"
10144,"com.android.chrome","192.168.0.19",45712,"","151.101.69.140",443,"https","TCP",9,797,"San Francisco","California","US"
0,"","192.168.0.19",1729,"citynl","192.168.0.1",53,"domain","UDP",1,63,"","",""
0,"","192.168.0.1",53,"domain","192.168.0.19",46703,"","UDP",1,76,"","",""
0,"","192.168.29.1",53,"domain","192.168.29.102",19194,"ua-secureagent","UDP",1,109,"","",""
10144,"com.android.chrome","151.101.69.140",443,"https","192.168.0.19",45666,"","TCP",5,4114,"San Francisco","California","US"
0,"","192.168.0.1",53,"domain","192.168.0.19",16967,"","UDP",1,107,"","",""
10144,"com.android.chrome","52.40.110.82",443,"https","192.168.0.19",60933,"","TCP",8,3627,"Boardman","Oregon","US"
10144,"com.android.chrome","192.168.0.19",60935,"","52.40.110.82",443,"https","TCP",11,885,"Boardman","Oregon","US"
10022,"com.google.android.syncadapters.bookmarks","192.168.0.19",37360,"","216.58.195.78",443,"https","TCP",12,1745,"Mountain View","California","US"
10152,"com.snapchat.android","192.168.0.19",36975,"","216.58.217.49",443,"https","TCP",11,1718,"Mountain View","California","US"
10144,"com.android.chrome","151.101.69.140",443,"https","192.168.0.19",45659,"","TCP",5,4130,"San Francisco","California","US"
0,"","192.168.0.1",53,"domain","192.168.0.19",56368,"","UDP",1,108,"","",""
10144,"com.android.chrome","192.168.0.19",58807,"","216.58.217.42",443,"https","TCP",22,1898,"Mountain View","California","US"
-1,"","192.168.29.1",49104,"","192.168.29.102",515,"printer","TCP",1,60,"","",""
10144,"com.android.chrome","151.101.69.140",443,"https","192.168.0.19",45669,"","TCP",5,4114,"San Francisco","California","US"
10022,"com.google.android.syncadapters.bookmarks","216.58.217.46",443,"https","192.168.0.19",54230,"","TCP",11,5518,"Mountain View","California","US"
0,"","192.168.0.19",27644,"","192.168.0.1",53,"domain","UDP",1,64,"","",""
0,"","192.168.0.19",41040,"","192.168.0.1",53,"domain","UDP",1,59,"","",""
-1,"","192.168.29.1",39499,"","192.168.29.102",9100,"pdl-datastream","TCP",1,60,"","",""
10114,"com.google.android.videos","216.58.217.46",443,"https","192.168.0.19",54232,"","TCP",17,7313,"Mountain View","California","US"
10022,"com.google.android.syncadapters.bookmarks","216.58.217.46",443,"https","192.168.0.19",54227,"","TCP",11,5689,"Mountain View","California","US"
0,"","192.168.0.1",53,"domain","192.168.0.19",60503,"","UDP",1,130,"","",""
-1,"","192.168.29.102",9100,"pdl-datastream","192.168.29.1",39499,"","TCP",1,40,"","",""
10022,"com.google.android.syncadapters.bookmarks","216.58.217.10",443,"https","192.168.0.19",48232,"","TCP",10,6761,"Mountain View","California","US"
10144,"com.android.chrome","192.168.0.19",39363,"","216.58.217.33",443,"https","UDP",91,9897,"Mountain View","California","US"
10144,"com.android.chrome","192.168.0.19",59393,"","216.58.193.100",443,"https","UDP",4,1897,"Mountain View","California","US"
0,"","192.168.0.19",6462,"","192.168.0.1",53,"domain","UDP",1,64,"","",""
0,"","192.168.0.19",56368,"","192.168.0.1",53,"domain","UDP",1,66,"","",""
10144,"com.android.chrome","192.168.0.19",35683,"","172.217.3.195",443,"https","TCP",46,3387,"Mountain View","California","US"
10022,"com.google.android.syncadapters.bookmarks","216.58.217.42",443,"https","192.168.0.19",58819,"","TCP",8,980,"Mountain View","California","US"
10144,"com.android.chrome","192.168.0.19",45718,"","151.101.69.140",443,"https","TCP",5,280,"San Francisco","California","US"
0,"","192.168.0.1",53,"domain","192.168.0.19",34759,"","UDP",1,109,"","",""
10144,"com.android.chrome","192.168.0.19",60552,"","52.35.19.240",443,"https","TCP",11,1199,"Boardman","Oregon","US"
0,"","192.168.0.19",29685,"","192.168.0.1",53,"domain","UDP",1,65,"","",""
10045,"com.carrieriq.tmobile","192.168.0.1",53,"domain","192.168.0.19",8643,"","UDP",1,130,"","",""
10144,"com.android.chrome","216.58.193.100",443,"https","192.168.0.19",44311,"","TCP",14,5106,"Mountain View","California","US"
10045,"com.carrieriq.tmobile","192.168.0.1",53,"domain","192.168.0.19",4071,"aibkup","UDP",1,130,"","",""
-1,"","192.168.0.1",0,"","224.0.0.1",0,"","2",173,6228,"","",""
10022,"com.google.android.syncadapters.bookmarks","216.58.217.10",443,"https","192.168.0.19",48286,"","TCP",17,9584,"Mountain View","California","US"
10022,"com.google.android.syncadapters.bookmarks","216.58.217.42",443,"https","192.168.0.19",58796,"","TCP",10,5072,"Mountain View","California","US"
10114,"com.google.android.videos","216.58.217.46",443,"https","192.168.0.19",54245,"","TCP",8,1229,"Mountain View","California","US"
10022,"com.google.android.syncadapters.bookmarks","192.168.0.19",54356,"","216.58.217.46",443,"https","TCP",10,1355,"Mountain View","California","US"
0,"","192.168.0.1",53,"domain","192.168.0.19",29685,"","UDP",1,131,"","",""
10001,"com.tmobile.pr.mytmobile","192.168.0.19",36658,"","65.52.232.150",443,"https","TCP",3,180,"Chicago","Illinois","US"
10144,"com.android.chrome","216.58.217.34",443,"https","192.168.0.19",53945,"","TCP",9,4836,"Mountain View","California","US"
10022,"com.google.android.syncadapters.bookmarks","216.58.217.42",443,"https","192.168.0.19",58792,"","TCP",40,47620,"Mountain View","California","US"
0,"","192.168.0.19",39058,"","192.168.0.1",53,"domain","UDP",1,66,"","",""
10144,"com.android.chrome","192.168.0.19",42836,"","192.168.0.1",53,"domain","UDP",1,53,"","",""
0,"","192.168.0.19",33871,"","192.168.0.1",53,"domain","UDP",1,63,"","",""
10114,"com.google.android.videos","216.58.217.46",443,"https","192.168.0.19",54246,"","TCP",9,1281,"Mountain View","California","US"
0,"","192.168.0.19",49129,"","192.168.0.1",53,"domain","UDP",1,70,"","",""
0,"","192.168.0.19",61710,"","192.168.0.1",53,"domain","UDP",1,72,"","",""
10144,"com.android.chrome","151.101.69.140",443,"https","192.168.0.19",45670,"","TCP",5,4114,"San Francisco","California","US"
10144,"com.android.chrome","151.101.69.140",443,"https","192.168.0.19",45700,"","TCP",5,4130,"San Francisco","California","US"
10144,"com.android.chrome","52.40.110.82",443,"https","192.168.0.19",60953,"","TCP",11,4433,"Boardman","Oregon","US"
-1,"","192.168.29.102",139,"netbios-ssn","192.168.29.1",45166,"","TCP",1,40,"","",""
10022,"com.google.android.syncadapters.bookmarks","216.58.217.34",443,"https","192.168.0.19",53863,"","TCP",8,5233,"Mountain View","California","US"
0,"","192.168.0.19",14710,"","192.168.0.1",53,"domain","UDP",1,70,"","",""
10144,"com.android.chrome","172.217.4.174",443,"https","192.168.0.19",59963,"","TCP",10,6833,"Mountain View","California","US"
10144,"com.android.chrome","151.101.69.140",443,"https","192.168.0.19",45717,"","TCP",5,4130,"San Francisco","California","US"
10144,"com.android.chrome","151.101.69.140",443,"https","192.168.0.19",45675,"","TCP",5,4130,"San Francisco","California","US"
10144,"com.android.chrome","151.101.69.140",443,"https","192.168.0.19",45702,"","TCP",5,4130,"San Francisco","California","US"
10144,"com.android.chrome","192.168.0.19",53559,"","216.58.217.33",443,"https","TCP",10,988,"Mountain View","California","US"
0,"","192.168.0.19",4269,"vrml-multi-use","192.168.0.1",53,"domain","UDP",1,65,"","",""
0,"","192.168.0.1",53,"domain","192.168.0.19",42205,"","UDP",1,86,"","",""
0,"","192.168.29.1",53,"domain","192.168.29.102",47663,"","UDP",1,107,"","",""
10152,"com.snapchat.android","216.58.217.49",443,"https","192.168.0.19",36969,"","TCP",13,4524,"Mountain View","California","US"
10114,"com.google.android.videos","216.58.217.46",443,"https","192.168.0.19",54223,"","TCP",11,5742,"Mountain View","California","US"
0,"","192.168.0.1",53,"domain","192.168.0.19",20000,"dnp","UDP",1,178,"","",""
0,"","192.168.0.19",48566,"","192.168.0.1",53,"domain","UDP",1,64,"","",""
0,"","192.168.0.19",18010,"","192.168.0.1",53,"domain","UDP",1,65,"","",""
0,"","192.168.0.1",53,"domain","192.168.0.19",38333,"","UDP",1,231,"","",""
10114,"com.google.android.videos","192.168.0.19",54223,"","216.58.217.46",443,"https","TCP",15,1747,"Mountain View","California","US"
0,"","192.168.0.1",53,"domain","192.168.0.19",6291,"","UDP",1,116,"","",""
10114,"com.google.android.videos","192.168.29.102",50101,"","216.58.217.46",443,"https","TCP",11,2150,"Mountain View","California","US"
0,"","192.168.0.19",60145,"","192.168.0.1",53,"domain","UDP",1,66,"","",""
0,"","192.168.0.19",35951,"","192.168.0.1",53,"domain","UDP",1,64,"","",""
0,"","192.168.0.1",53,"domain","192.168.0.19",41040,"","UDP",1,212,"","",""
0,"","192.168.0.19",39142,"","192.168.0.1",53,"domain","UDP",1,59,"","",""
0,"","192.168.0.19",20000,"dnp","192.168.0.1",53,"domain","UDP",1,64,"","",""
10001,"com.tmobile.pr.mytmobile","192.168.0.19",36648,"","65.52.232.150",443,"https","TCP",3,180,"Chicago","Illinois","US"
0,"","192.168.0.19",51190,"","192.168.0.1",53,"domain","UDP",1,60,"","",""
0,"","192.168.0.1",53,"domain","192.168.0.19",44670,"","UDP",1,107,"","",""
0,"","192.168.0.19",27762,"","192.168.0.1",53,"domain","UDP",1,72,"","",""
0,"","192.168.29.102",41491,"","192.168.29.1",53,"domain","UDP",1,63,"","",""
10114,"com.google.android.videos","192.168.29.102",50098,"","216.58.217.46",443,"https","TCP",27,4956,"Mountain View","California","US"
10022,"com.google.android.syncadapters.bookmarks","192.168.0.19",58785,"","216.58.217.42",443,"https","TCP",31,2905,"Mountain View","California","US"
0,"","192.168.0.19",63241,"","192.168.0.1",53,"domain","UDP",1,70,"","",""
10152,"com.snapchat.android","192.168.0.19",36971,"","216.58.217.49",443,"https","TCP",15,3021,"Mountain View","California","US"
10144,"com.android.chrome","151.101.69.140",443,"https","192.168.0.19",45709,"","TCP",5,4114,"San Francisco","California","US"
10152,"com.snapchat.android","216.58.217.49",443,"https","192.168.29.102",36038,"","TCP",8,4665,"Mountain View","California","US"
0,"","192.168.0.19",6240,"","192.168.0.1",53,"domain","UDP",1,66,"","",""
10022,"com.google.android.syncadapters.bookmarks","192.168.0.19",54241,"","216.58.217.46",443,"https","TCP",14,10041,"Mountain View","California","US"
10144,"com.android.chrome","216.58.217.34",443,"https","192.168.0.19",53976,"","TCP",10,4922,"Mountain View","California","US"
0,"","192.168.0.19",39943,"","192.168.0.1",53,"domain","UDP",1,60,"","",""
10112,"com.google.android.googlequicksearchbox","216.58.193.68",443,"https","192.168.0.19",48535,"","TCP",9,1521,"Mountain View","California","US"
10045,"com.carrieriq.tmobile","192.168.0.1",53,"domain","192.168.0.19",18909,"","UDP",1,130,"","",""
0,"","192.168.0.1",53,"domain","192.168.0.19",57449,"","UDP",1,107,"","",""
10144,"com.android.chrome","192.168.0.19",53976,"","216.58.217.34",443,"https","TCP",10,979,"Mountain View","California","US"
10022,"com.google.android.syncadapters.bookmarks","216.58.217.10",443,"https","192.168.0.19",48291,"","TCP",8,980,"Mountain View","California","US"
0,"","192.168.0.1",53,"domain","192.168.0.19",63241,"","UDP",1,121,"","",""
0,"","192.168.0.19",28525,"","192.168.0.1",53,"domain","UDP",1,76,"","",""
10045,"com.carrieriq.tmobile","192.168.0.19",18909,"","192.168.0.1",53,"domain","UDP",1,64,"","",""
10144,"com.android.chrome","151.101.69.140",443,"https","192.168.0.19",45660,"","TCP",5,4130,"San Francisco","California","US"
10022,"com.google.android.syncadapters.bookmarks","192.168.29.102",47579,"","74.125.69.188",5228,"","TCP",9,1670,"Mountain View","California","US"
0,"","192.168.0.19",38333,"","192.168.0.1",53,"domain","UDP",1,60,"","",""
10144,"com.android.chrome","192.168.0.19",57999,"","172.217.3.196",443,"https","TCP",16,1446,"Mountain View","California","US"
10022,"com.google.android.syncadapters.bookmarks","216.58.217.10",443,"https","192.168.0.19",48195,"","TCP",9,5761,"Mountain View","California","US"
10022,"com.google.android.syncadapters.bookmarks","216.58.217.46",443,"https","192.168.0.19",54247,"","TCP",9,1470,"Mountain View","California","US"
0,"","192.168.0.19",14305,"","192.168.0.1",53,"domain","UDP",1,67,"","",""
0,"","192.168.0.1",53,"domain","192.168.0.19",17234,"integrius-stp","UDP",1,115,"","",""
0,"","192.168.0.19",42205,"","192.168.0.1",53,"domain","UDP",1,70,"","",""
10144,"com.android.chrome","151.101.69.140",443,"https","192.168.0.19",45667,"","TCP",5,4130,"San Francisco","California","US"
10144,"com.android.chrome","151.101.69.140",443,"https","192.168.0.19",45699,"","TCP",5,4130,"San Francisco","California","US"
10144,"com.android.chrome","151.101.69.140",443,"https","192.168.0.19",45668,"","TCP",5,4130,"San Francisco","California","US"
0,"","192.168.0.1",53,"domain","192.168.0.19",31298,"","UDP",1,164,"","",""
1000,"","192.168.0.19",44087,"","216.58.217.46",80,"http","TCP",5,447,"Mountain View","California","US"
10144,"com.android.chrome","192.168.0.19",53946,"","216.58.217.34",443,"https","TCP",9,929,"Mountain View","California","US"
10022,"com.google.android.syncadapters.bookmarks","192.168.0.19",54243,"","216.58.217.46",443,"https","TCP",10,1668,"Mountain View","California","US"
10144,"com.android.chrome","192.168.0.19",45710,"","151.101.69.140",443,"https","TCP",9,800,"San Francisco","California","US"
10144,"com.android.chrome","72.21.91.70",443,"https","192.168.0.19",60135,"","TCP",7,4753,"","","US"
10144,"com.android.chrome","192.168.0.19",57233,"","216.58.192.14",443,"https","TCP",21,2673,"Mountain View","California","US"
0,"","192.168.0.19",4546,"sf-lm","192.168.0.1",53,"domain","UDP",1,65,"","",""
0,"","192.168.0.19",19918,"","192.168.0.1",53,"domain","UDP",1,68,"","",""
10022,"com.google.android.syncadapters.bookmarks","216.58.217.10",443,"https","192.168.0.19",48290,"","TCP",10,5168,"Mountain View","California","US"
-1,"","0.0.0.0",0,"","224.0.0.1",0,"","2",9,288,"","",""
10144,"com.android.chrome","151.101.69.140",443,"https","192.168.0.19",45708,"","TCP",5,4114,"San Francisco","California","US"
10045,"com.carrieriq.tmobile","192.168.0.1",53,"domain","192.168.0.19",49828,"","UDP",1,130,"","",""
10022,"com.google.android.syncadapters.bookmarks","172.217.4.170",443,"https","192.168.0.19",46046,"","TCP",10,5253,"Mountain View","California","US"
0,"","192.168.0.1",53,"domain","192.168.0.19",25176,"","UDP",1,130,"","",""
0,"","192.168.0.19",29728,"","192.168.0.1",53,"domain","UDP",1,63,"","",""
10144,"com.android.chrome","192.168.0.19",54347,"","216.58.217.46",443,"https","TCP",14,1188,"Mountain View","California","US"
10144,"com.android.chrome","216.58.217.35",443,"https","192.168.0.19",55572,"","UDP",3,2811,"Mountain View","California","US"
10144,"com.android.chrome","192.168.0.19",53947,"","216.58.217.34",443,"https","TCP",9,927,"Mountain View","California","US"
-1,"","192.168.29.1",34745,"","192.168.29.102",5353,"mdns","UDP",1,62,"","",""
10152,"com.snapchat.android","216.58.217.49",443,"https","192.168.0.19",36975,"","TCP",9,936,"Mountain View","California","US"
0,"","192.168.0.1",53,"domain","192.168.0.19",33237,"","UDP",1,80,"","",""
0,"","192.168.0.19",7049,"","192.168.0.1",53,"domain","UDP",1,74,"","",""
0,"","192.168.0.1",53,"domain","192.168.0.19",18797,"","UDP",1,77,"","",""
10114,"com.google.android.videos","192.168.0.19",41793,"","216.58.217.14",443,"https","TCP",13,1663,"Mountain View","California","US"
10152,"com.snapchat.android","192.168.0.19",24716,"","216.58.217.49",443,"https","UDP",7,3248,"Mountain View","California","US"
10022,"com.google.android.syncadapters.bookmarks","216.58.217.10",443,"https","192.168.0.19",48285,"","TCP",103,139268,"Mountain View","California","US"
0,"","192.168.0.1",53,"domain","192.168.0.19",43572,"","UDP",1,99,"","",""
0,"","192.168.0.19",60608,"","192.168.0.1",53,"domain","UDP",1,60,"","",""
0,"","192.168.29.1",53,"domain","192.168.29.102",41491,"","UDP",1,107,"","",""
0,"","192.168.29.102",19194,"ua-secureagent","192.168.29.1",53,"domain","UDP",1,63,"","",""
10144,"com.android.chrome","151.101.69.140",443,"https","192.168.0.19",45656,"","TCP",5,4130,"San Francisco","California","US"
10144,"com.android.chrome","199.16.156.52",443,"https","192.168.0.19",36850,"","TCP",7,4232,"San Francisco","California","US"
10022,"com.google.android.syncadapters.bookmarks","216.58.217.46",443,"https","192.168.0.19",54233,"","TCP",18,1890,"Mountain View","California","US"
10144,"com.android.chrome","192.168.0.19",45657,"","151.101.69.140",443,"https","TCP",9,807,"San Francisco","California","US"
10144,"com.android.chrome","192.168.0.19",45714,"","151.101.69.140",443,"https","TCP",9,802,"San Francisco","California","US"
10022,"com.google.android.syncadapters.bookmarks","216.58.217.46",443,"https","192.168.0.19",54270,"","TCP",9,1417,"Mountain View","California","US"
10152,"com.snapchat.android","192.168.29.102",36038,"","216.58.217.49",443,"https","TCP",10,1360,"Mountain View","California","US"
10144,"com.android.chrome","192.168.0.19",54316,"","216.58.217.46",443,"https","TCP",13,1124,"Mountain View","California","US"
10022,"com.google.android.syncadapters.bookmarks","192.168.0.19",58818,"","216.58.217.42",443,"https","TCP",13,2312,"Mountain View","California","US"
0,"","192.168.0.19",2483,"ttc","192.168.0.1",53,"domain","UDP",1,72,"","",""
10022,"com.google.android.syncadapters.bookmarks","216.58.217.42",443,"https","192.168.0.19",58825,"","TCP",10,4752,"Mountain View","California","US"
10144,"com.android.chrome","192.168.0.19",51089,"","199.96.57.6",443,"https","TCP",10,855,"San Francisco","California","US"
10022,"com.google.android.syncadapters.bookmarks","192.168.0.19",58798,"","216.58.217.42",443,"https","TCP",14,3545,"Mountain View","California","US"
10022,"com.google.android.syncadapters.bookmarks","216.58.195.78",443,"https","192.168.0.19",37360,"","TCP",10,5321,"Mountain View","California","US"
10144,"com.android.chrome","192.168.0.19",45699,"","151.101.69.140",443,"https","TCP",9,807,"San Francisco","California","US"
0,"","192.168.0.1",53,"domain","192.168.0.19",28525,"","UDP",1,118,"","",""
0,"","192.168.0.19",52629,"","192.168.0.1",53,"domain","UDP",1,64,"","",""
10022,"com.google.android.syncadapters.bookmarks","192.168.0.19",54270,"","216.58.217.46",443,"https","TCP",10,1631,"Mountain View","California","US"
0,"","192.168.0.1",53,"domain","192.168.0.19",39895,"","UDP",1,120,"","",""
0,"","192.168.0.19",46703,"","192.168.0.1",53,"domain","UDP",1,60,"","",""
10144,"com.android.chrome","192.168.0.19",60105,"","72.21.91.70",443,"https","TCP",10,860,"","","US"
10045,"com.carrieriq.tmobile","192.168.0.1",53,"domain","192.168.0.19",63591,"","UDP",1,130,"","",""
10144,"com.android.chrome","151.101.69.140",443,"https","192.168.0.19",45701,"","TCP",5,4130,"San Francisco","California","US"
0,"","192.168.0.19",25254,"","192.168.0.1",53,"domain","UDP",1,64,"","",""
10144,"com.android.chrome","192.168.0.19",45716,"","151.101.69.140",443,"https","TCP",9,803,"San Francisco","California","US"
0,"","192.168.0.1",53,"domain","192.168.0.19",1638,"ismc","UDP",1,131,"","",""
10144,"com.android.chrome","216.58.217.3",443,"https","192.168.0.19",41635,"","UDP",8,7564,"Mountain View","California","US"
0,"","192.168.0.1",53,"domain","192.168.0.19",25254,"","UDP",1,130,"","",""
10022,"com.google.android.syncadapters.bookmarks","192.168.0.19",58796,"","216.58.217.42",443,"https","TCP",13,2344,"Mountain View","California","US"
0,"","192.168.0.19",59841,"","192.168.0.1",53,"domain","UDP",1,65,"","",""
0,"","192.168.0.1",53,"domain","192.168.0.19",7867,"","UDP",1,118,"","",""
1000,"","216.58.217.46",80,"http","192.168.0.19",44087,"","TCP",4,299,"Mountain View","California","US"
10152,"com.snapchat.android","192.168.0.19",36969,"","216.58.217.49",443,"https","TCP",16,1290,"Mountain View","California","US"
0,"","192.168.0.1",53,"domain","192.168.0.19",46489,"","UDP",1,117,"","",""
10144,"com.android.chrome","192.168.0.19",43350,"","192.168.0.1",53,"domain","UDP",1,56,"","",""
10022,"com.google.android.syncadapters.bookmarks","216.58.217.46",443,"https","192.168.0.19",54275,"","TCP",9,1361,"Mountain View","California","US"
10114,"com.google.android.videos","216.58.217.46",443,"https","192.168.29.102",50101,"","TCP",9,1281,"Mountain View","California","US"
10144,"com.android.chrome","192.168.0.19",53975,"","216.58.217.34",443,"https","TCP",12,1085,"Mountain View","California","US"
10144,"com.android.chrome","172.217.3.195",443,"https","192.168.0.19",35683,"","TCP",47,44403,"Mountain View","California","US"
0,"","192.168.0.19",9651,"","192.168.0.1",53,"domain","UDP",1,63,"","",""
10144,"com.android.chrome","151.101.69.140",443,"https","192.168.0.19",45703,"","TCP",5,4130,"San Francisco","California","US"
10001,"com.tmobile.pr.mytmobile","192.168.0.19",36767,"","65.52.232.150",443,"https","TCP",3,180,"Chicago","Illinois","US"
10045,"com.carrieriq.tmobile","192.168.0.1",53,"domain","192.168.0.19",56943,"","UDP",1,130,"","",""
0,"","192.168.0.19",10856,"","192.168.0.1",53,"domain","UDP",1,60,"","",""
0,"","192.168.0.19",46489,"","192.168.0.1",53,"domain","UDP",1,66,"","",""
10022,"com.google.android.syncadapters.bookmarks","192.168.0.19",48286,"","216.58.217.10",443,"https","TCP",23,13425,"Mountain View","California","US"
0,"","192.168.0.19",62601,"","192.168.0.1",53,"domain","UDP",1,63,"","",""
10144,"com.android.chrome","192.168.0.19",45671,"","151.101.69.140",443,"https","TCP",9,800,"San Francisco","California","US"
10144,"com.android.chrome","192.168.0.19",7550,"cloudsignaling","192.168.0.1",53,"domain","UDP",1,55,"","",""
10001,"com.tmobile.pr.mytmobile","52.85.83.68",80,"http","192.168.0.19",38006,"","TCP",4,1623,"Seattle","Washington","US"
0,"","192.168.0.19",32864,"","192.168.0.1",53,"domain","UDP",1,71,"","",""
-1,"","192.168.0.7",57621,"","192.168.0.255",57621,"","UDP",13,936,"","",""
10144,"com.android.chrome","151.101.69.140",443,"https","192.168.0.19",45672,"","TCP",6,4978,"San Francisco","California","US"
0,"","192.168.0.19",43421,"","192.168.0.1",53,"domain","UDP",1,73,"","",""
10114,"com.google.android.videos","192.168.0.19",54261,"","216.58.217.46",443,"https","TCP",11,2150,"Mountain View","California","US"
10144,"com.android.chrome","192.168.0.19",37230,"","23.73.156.235",443,"https","TCP",10,855,"Cambridge","Massachusetts","US"
10022,"com.google.android.syncadapters.bookmarks","192.168.0.19",48290,"","216.58.217.10",443,"https","TCP",13,2312,"Mountain View","California","US"
1000,"","216.58.217.46",80,"http","192.168.29.102",55599,"","TCP",5,351,"Mountain View","California","US"
10144,"com.android.chrome","192.168.0.19",45673,"","151.101.69.140",443,"https","TCP",9,803,"San Francisco","California","US"
10045,"com.carrieriq.tmobile","192.168.0.19",4071,"aibkup","192.168.0.1",53,"domain","UDP",1,64,"","",""
0,"","192.168.0.1",53,"domain","192.168.0.19",52629,"","UDP",1,130,"","",""
0,"","192.168.0.1",53,"domain","192.168.0.19",15238,"","UDP",1,112,"","",""
10144,"com.android.chrome","199.16.156.52",443,"https","192.168.0.19",36881,"","TCP",11,4517,"San Francisco","California","US"
10001,"com.tmobile.pr.mytmobile","192.168.0.19",36647,"","65.52.232.150",443,"https","TCP",3,180,"Chicago","Illinois","US"
0,"","192.168.0.1",53,"domain","192.168.0.19",15712,"","UDP",1,114,"","",""
10144,"com.android.chrome","192.168.0.19",45702,"","151.101.69.140",443,"https","TCP",9,807,"San Francisco","California","US"
0,"","192.168.0.1",53,"domain","192.168.0.19",14710,"","UDP",1,121,"","",""
0,"","192.168.0.19",22716,"","192.168.0.1",53,"domain","UDP",1,62,"","",""
0,"","192.168.0.1",53,"domain","192.168.0.19",4269,"vrml-multi-use","UDP",1,131,"","",""
10001,"com.tmobile.pr.mytmobile","192.168.0.19",36768,"","65.52.232.150",443,"https","TCP",3,180,"Chicago","Illinois","US"
-1,"","192.168.29.102",9999,"distinct","192.168.29.1",9999,"distinct","ICMP",3,1704,"","",""
0,"","192.168.0.1",53,"domain","192.168.0.19",10856,"","UDP",1,76,"","",""
10114,"com.google.android.videos","216.58.217.46",443,"https","192.168.29.102",50098,"","TCP",23,8365,"Mountain View","California","US"
0,"","192.168.0.19",52393,"","192.168.0.1",53,"domain","UDP",1,65,"","",""
0,"","192.168.0.1",53,"domain","192.168.0.19",59841,"","UDP",1,131,"","",""
0,"","192.168.0.1",53,"domain","192.168.0.19",64421,"","UDP",1,112,"","",""
0,"","192.168.0.1",53,"domain","192.168.0.19",9651,"","UDP",1,109,"","",""
0,"","192.168.0.19",49676,"","192.168.0.1",53,"domain","UDP",1,60,"","",""
10144,"com.android.chrome","216.58.193.100",443,"https","192.168.0.19",59393,"","UDP",4,1782,"Mountain View","California","US"
0,"","192.168.0.1",53,"domain","192.168.0.19",49129,"","UDP",1,117,"","",""
10022,"com.google.android.syncadapters.bookmarks","192.168.0.19",51753,"","64.233.191.188",5228,"","TCP",11,1496,"Mountain View","California","US"
0,"","192.168.0.19",23247,"","192.168.0.1",53,"domain","UDP",1,65,"","",""
0,"","192.168.0.19",11537,"","192.168.0.1",53,"domain","UDP",1,60,"","",""
0,"","192.168.0.1",53,"domain","192.168.0.19",35656,"","UDP",1,112,"","",""
10144,"com.android.chrome","172.217.3.196",443,"https","192.168.0.19",57999,"","TCP",15,5158,"Mountain View","California","US"
0,"","192.168.0.1",53,"domain","192.168.0.19",63132,"","UDP",1,107,"","",""
10144,"com.android.chrome","192.168.0.19",46188,"","172.217.3.195",443,"https","UDP",92,9854,"Mountain View","California","US"
0,"","192.168.0.1",53,"domain","192.168.0.19",34543,"","UDP",1,114,"","",""
0,"","192.168.0.19",16967,"","192.168.0.1",53,"domain","UDP",1,63,"","",""
0,"","192.168.0.19",17234,"integrius-stp","192.168.0.1",53,"domain","UDP",1,63,"","",""
0,"","192.168.0.1",53,"domain","192.168.0.19",27762,"","UDP",1,112,"","",""
10144,"com.android.chrome","216.58.217.33",443,"https","192.168.0.19",53559,"","TCP",9,4833,"Mountain View","California","US"
10022,"com.google.android.syncadapters.bookmarks","192.168.0.19",46047,"","172.217.4.170",443,"https","TCP",11,1863,"Mountain View","California","US"
0,"","192.168.0.1",53,"domain","192.168.0.19",8133,"","UDP",1,107,"","",""
0,"","192.168.0.19",25176,"","192.168.0.1",53,"domain","UDP",1,64,"","",""
10022,"com.google.android.syncadapters.bookmarks","216.58.217.42",443,"https","192.168.0.19",58794,"","TCP",44,52298,"Mountain View","California","US"
-1,"","0.0.0.0",68,"bootpc","255.255.255.255",67,"bootps","UDP",2,656,"","",""
10022,"com.google.android.syncadapters.bookmarks","192.168.0.19",58826,"","216.58.217.42",443,"https","TCP",10,1980,"Mountain View","California","US"
0,"","192.168.0.1",53,"domain","192.168.0.19",19918,"","UDP",1,164,"","",""
10114,"com.google.android.videos","192.168.0.19",54232,"","216.58.217.46",443,"https","TCP",22,4023,"Mountain View","California","US"
10144,"com.android.chrome","192.168.0.19",36850,"","199.16.156.52",443,"https","TCP",10,858,"San Francisco","California","US"
0,"","192.168.0.19",15165,"","192.168.0.1",53,"domain","UDP",1,72,"","",""
0,"","192.168.0.19",5692,"","192.168.0.1",53,"domain","UDP",1,63,"","",""
0,"","192.168.29.102",1217,"hpss-ndapi","192.168.29.1",53,"domain","UDP",1,63,"","",""
-1,"","192.168.29.164",57621,"","192.168.29.255",57621,"","UDP",1,72,"","",""
0,"","192.168.0.19",54065,"","192.168.0.1",53,"domain","UDP",1,60,"","",""
0,"","192.168.0.19",16004,"","192.168.0.1",53,"domain","UDP",1,60,"","",""
10001,"com.tmobile.pr.mytmobile","52.85.83.68",80,"http","192.168.0.19",38007,"","TCP",5,1749,"Seattle","Washington","US"
0,"","192.168.0.1",53,"domain","192.168.0.19",18752,"","UDP",1,84,"","",""
10144,"com.android.chrome","216.58.217.34",443,"https","192.168.0.19",53975,"","TCP",10,4909,"Mountain View","California","US"
0,"","192.168.0.19",7867,"","192.168.0.1",53,"domain","UDP",1,66,"","",""
10114,"com.google.android.videos","192.168.29.102",50103,"","216.58.217.46",443,"https","TCP",7,1276,"Mountain View","California","US"
0,"","192.168.0.19",15712,"","192.168.0.1",53,"domain","UDP",1,63,"","",""
10144,"com.android.chrome","216.58.217.34",443,"https","192.168.0.19",53946,"","TCP",8,4750,"Mountain View","California","US"
10022,"com.google.android.syncadapters.bookmarks","192.168.0.19",33669,"","74.125.202.188",5228,"","TCP",53,4752,"Mountain View","California","US"
0,"","192.168.0.1",53,"domain","192.168.0.19",39058,"","UDP",1,117,"","",""
10045,"com.carrieriq.tmobile","192.168.0.19",56943,"","192.168.0.1",53,"domain","UDP",1,64,"","",""
10144,"com.android.chrome","192.168.0.19",45658,"","151.101.69.140",443,"https","TCP",9,807,"San Francisco","California","US"
0,"","192.168.0.19",35656,"","192.168.0.1",53,"domain","UDP",1,72,"","",""
10022,"com.google.android.syncadapters.bookmarks","216.58.217.10",443,"https","192.168.0.19",48297,"","TCP",10,4592,"Mountain View","California","US"
0,"","192.168.0.1",53,"domain","192.168.0.19",49676,"","UDP",1,111,"","",""
0,"","192.168.0.1",53,"domain","192.168.0.19",27644,"","UDP",1,130,"","",""
10144,"com.android.chrome","192.168.0.19",45656,"","151.101.69.140",443,"https","TCP",9,807,"San Francisco","California","US"
0,"","192.168.0.19",53055,"","192.168.0.1",53,"domain","UDP",1,55,"","",""
10022,"com.google.android.syncadapters.bookmarks","216.58.217.42",443,"https","192.168.0.19",58793,"","TCP",12,5309,"Mountain View","California","US"
0,"","192.168.0.1",53,"domain","192.168.0.19",20767,"","UDP",1,109,"","",""
10144,"com.android.chrome","151.101.69.140",443,"https","192.168.0.19",45714,"","TCP",5,4130,"San Francisco","California","US"
0,"","192.168.0.1",53,"domain","192.168.0.19",46286,"","UDP",1,111,"","",""
10144,"com.android.chrome","151.101.69.140",443,"https","192.168.0.19",45712,"","TCP",5,4114,"San Francisco","California","US"
10022,"com.google.android.syncadapters.bookmarks","216.58.217.46",443,"https","192.168.0.19",54243,"","TCP",9,1382,"Mountain View","California","US"
10112,"com.google.android.googlequicksearchbox","216.58.193.68",443,"https","192.168.0.19",48533,"","TCP",10,5271,"Mountain View","California","US"
0,"","192.168.0.19",29988,"","192.168.0.1",53,"domain","UDP",1,66,"","",""
10144,"com.android.chrome","192.168.0.19",60553,"","52.35.19.240",443,"https","TCP",11,1199,"Boardman","Oregon","US"
10022,"com.google.android.syncadapters.bookmarks","172.217.4.170",443,"https","192.168.0.19",46047,"","TCP",10,5093,"Mountain View","California","US"
10144,"com.android.chrome","216.58.217.35",443,"https","192.168.0.19",49287,"","TCP",9,5132,"Mountain View","California","US"
10067,"com.android.vending","192.168.0.19",54234,"","216.58.217.46",443,"https","TCP",45,12024,"Mountain View","California","US"
0,"","192.168.0.19",44670,"","192.168.0.1",53,"domain","UDP",1,63,"","",""
10152,"com.snapchat.android","192.168.0.19",36970,"","216.58.217.49",443,"https","TCP",20,4572,"Mountain View","California","US"
10144,"com.android.chrome","216.58.217.33",443,"https","192.168.0.19",53549,"","TCP",21,8165,"Mountain View","California","US"
10144,"com.android.chrome","192.168.0.19",53974,"","216.58.217.34",443,"https","TCP",10,976,"Mountain View","California","US"
10144,"com.android.chrome","216.58.217.3",443,"https","192.168.0.19",33389,"","UDP",2,1433,"Mountain View","California","US"
-1,"","192.168.29.1",9999,"distinct","192.168.29.102",9999,"distinct","UDP",3,1620,"","",""
0,"","192.168.0.19",31298,"","192.168.0.1",53,"domain","UDP",1,68,"","",""
0,"","192.168.0.1",53,"domain","192.168.0.19",31732,"","UDP",1,75,"","",""
10144,"com.android.chrome","192.168.0.1",53,"domain","192.168.0.19",43350,"","UDP",1,131,"","",""
10101,"com.nuance.swype.input","205.197.193.129",443,"https","192.168.0.19",48839,"","TCP",12,5772,"Burlington","Massachusetts","US"
0,"","192.168.0.1",53,"domain","192.168.0.19",12792,"","UDP",1,111,"","",""
10022,"com.google.android.syncadapters.bookmarks","216.58.217.46",443,"https","192.168.0.19",54266,"","TCP",9,5272,"Mountain View","California","US"
0,"","192.168.0.19",46286,"","192.168.0.1",53,"domain","UDP",1,60,"","",""
10144,"com.android.chrome","192.168.0.19",53588,"","216.58.217.33",443,"https","TCP",12,1080,"Mountain View","California","US"
0,"","192.168.0.19",60503,"","192.168.0.1",53,"domain","UDP",1,64,"","",""
10144,"com.android.chrome","151.101.69.140",443,"https","192.168.0.19",45655,"","TCP",5,4114,"San Francisco","California","US"
10144,"com.android.chrome","151.101.69.140",443,"https","192.168.0.19",45710,"","TCP",5,4114,"San Francisco","California","US"
10144,"com.android.chrome","216.58.217.35",443,"https","192.168.0.19",49294,"","TCP",27,10090,"Mountain View","California","US"
10144,"com.android.chrome","216.58.217.33",443,"https","192.168.0.19",39363,"","UDP",150,190998,"Mountain View","California","US"
10022,"com.google.android.syncadapters.bookmarks","192.168.0.19",48196,"","216.58.217.10",443,"https","TCP",9,1993,"Mountain View","California","US"
0,"","192.168.0.19",20767,"","192.168.0.1",53,"domain","UDP",1,63,"","",""
0,"","192.168.0.1",53,"domain","192.168.0.19",7908,"","UDP",1,99,"","",""
10022,"com.google.android.syncadapters.bookmarks","64.233.191.188",5228,"","192.168.0.19",51753,"","TCP",9,4949,"Mountain View","California","US"
10001,"com.tmobile.pr.mytmobile","192.168.0.19",36670,"","65.52.232.150",443,"https","TCP",3,180,"Chicago","Illinois","US"
0,"","192.168.0.19",31732,"","192.168.0.1",53,"domain","UDP",1,59,"","",""
10045,"com.carrieriq.tmobile","192.168.0.19",8643,"","192.168.0.1",53,"domain","UDP",1,64,"","",""
10144,"com.android.chrome","192.168.0.19",45675,"","151.101.69.140",443,"https","TCP",9,803,"San Francisco","California","US"
0,"","192.168.0.1",53,"domain","192.168.0.19",6462,"","UDP",1,130,"","",""
0,"","192.168.0.19",24477,"","192.168.0.1",53,"domain","UDP",1,73,"","",""
10144,"com.android.chrome","216.58.217.3",443,"https","192.168.0.19",39341,"","TCP",18,6026,"Mountain View","California","US"
10022,"com.google.android.syncadapters.bookmarks","192.168.0.19",58793,"","216.58.217.42",443,"https","TCP",17,9795,"Mountain View","California","US"
0,"","192.168.0.19",14908,"","192.168.0.1",53,"domain","UDP",1,71,"","",""
10022,"com.google.android.syncadapters.bookmarks","192.168.0.19",58792,"","216.58.217.42",443,"https","TCP",26,2937,"Mountain View","California","US"
0,"","192.168.0.1",53,"domain","192.168.0.19",22261,"","UDP",1,128,"","",""
10144,"com.android.chrome","192.168.0.19",45713,"","151.101.69.140",443,"https","TCP",9,802,"San Francisco","California","US"
10022,"com.google.android.syncadapters.bookmarks","172.217.4.170",443,"https","192.168.0.19",46048,"","TCP",10,5157,"Mountain View","California","US"
0,"","192.168.0.1",53,"domain","192.168.0.19",39943,"","UDP",1,76,"","",""
10045,"com.carrieriq.tmobile","192.168.0.19",63591,"","192.168.0.1",53,"domain","UDP",1,64,"","",""
0,"","192.168.0.1",53,"domain","192.168.0.19",14305,"","UDP",1,83,"","",""
10144,"com.android.chrome","216.58.217.34",443,"https","192.168.0.19",53947,"","TCP",8,4763,"Mountain View","California","US"
0,"","192.168.0.19",7908,"","192.168.0.1",53,"domain","UDP",1,83,"","",""
0,"","192.168.0.19",43572,"","192.168.0.1",53,"domain","UDP",1,67,"","",""
-1,"","192.168.29.102",80,"http","192.168.29.1",41033,"","TCP",1,40,"","",""
10144,"com.android.chrome","72.21.91.70",443,"https","192.168.0.19",60105,"","TCP",7,5996,"","","US"
10022,"com.google.android.syncadapters.bookmarks","192.168.0.19",48297,"","216.58.217.10",443,"https","TCP",11,1840,"Mountain View","California","US"
10144,"com.android.chrome","192.168.0.19",45659,"","151.101.69.140",443,"https","TCP",9,807,"San Francisco","California","US"
10144,"com.android.chrome","199.96.57.6",443,"https","192.168.0.19",51121,"","TCP",5,409,"San Francisco","California","US"
10022,"com.google.android.syncadapters.bookmarks","192.168.0.19",54247,"","216.58.217.46",443,"https","TCP",10,1590,"Mountain View","California","US"
10001,"com.tmobile.pr.mytmobile","192.168.0.19",36669,"","65.52.232.150",443,"https","TCP",3,180,"Chicago","Illinois","US"
10144,"com.android.chrome","216.58.217.42",443,"https","192.168.0.19",58807,"","TCP",17,7882,"Mountain View","California","US"
0,"","192.168.0.19",33559,"","192.168.0.1",53,"domain","UDP",1,70,"","",""
10001,"com.tmobile.pr.mytmobile","192.168.0.19",36659,"","65.52.232.150",443,"https","TCP",3,180,"Chicago","Illinois","US"
10144,"com.android.chrome","192.168.0.19",45707,"","151.101.69.140",443,"https","TCP",9,819,"San Francisco","California","US"
10144,"com.android.chrome","192.168.0.19",37256,"","23.73.156.235",443,"https","TCP",12,971,"Cambridge","Massachusetts","US"
0,"","192.168.0.1",53,"domain","192.168.0.19",2125,"lockstep","UDP",1,76,"","",""
10114,"com.google.android.videos","216.58.217.46",443,"https","192.168.0.19",54256,"","TCP",8,1229,"Mountain View","California","US"
0,"","192.168.0.19",63132,"","192.168.0.1",53,"domain","UDP",1,63,"","",""
10144,"com.android.chrome","151.101.69.140",443,"https","192.168.0.19",45658,"","TCP",5,4130,"San Francisco","California","US"
10144,"com.android.chrome","151.101.69.140",443,"https","192.168.0.19",45674,"","TCP",5,4130,"San Francisco","California","US"
10144,"com.android.chrome","192.168.0.19",53945,"","216.58.217.34",443,"https","TCP",12,1092,"Mountain View","California","US"
10022,"com.google.android.syncadapters.bookmarks","192.168.0.19",58825,"","216.58.217.42",443,"https","TCP",13,2312,"Mountain View","California","US"
10144,"com.android.chrome","216.58.217.33",443,"https","192.168.0.19",53588,"","TCP",10,4906,"Mountain View","California","US"
10144,"com.android.chrome","192.168.0.19",39341,"","216.58.217.3",443,"https","TCP",20,2154,"Mountain View","California","US"
10114,"com.google.android.videos","216.58.217.46",443,"https","192.168.29.102",50103,"","TCP",7,1189,"Mountain View","California","US"
10101,"com.nuance.swype.input","192.168.0.19",48839,"","205.197.193.129",443,"https","TCP",14,1733,"Burlington","Massachusetts","US"
10114,"com.google.android.videos","192.168.0.19",54246,"","216.58.217.46",443,"https","TCP",11,2150,"Mountain View","California","US"
-1,"","192.168.29.1",45166,"","192.168.29.102",139,"netbios-ssn","TCP",1,60,"","",""
10067,"com.android.vending","216.58.217.42",443,"https","192.168.0.19",58789,"","TCP",12,5245,"Mountain View","California","US"
10144,"com.android.chrome","192.168.0.19",45667,"","151.101.69.140",443,"https","TCP",9,802,"San Francisco","California","US"
10144,"com.android.chrome","192.168.0.19",33389,"","216.58.217.3",443,"https","UDP",2,1444,"Mountain View","California","US"
0,"","192.168.0.1",53,"domain","192.168.0.19",45488,"","UDP",1,97,"","",""
10144,"com.android.chrome","23.73.156.235",443,"https","192.168.0.19",37256,"","TCP",10,5361,"Cambridge","Massachusetts","US"
10022,"com.google.android.syncadapters.bookmarks","192.168.0.19",54233,"","216.58.217.46",443,"https","TCP",18,12959,"Mountain View","California","US"
0,"","192.168.0.19",45488,"","192.168.0.1",53,"domain","UDP",1,81,"","",""
0,"","192.168.0.1",53,"domain","192.168.0.19",43421,"","UDP",1,139,"","",""
10114,"com.google.android.videos","192.168.0.19",54245,"","216.58.217.46",443,"https","TCP",11,2150,"Mountain View","California","US"
10144,"com.android.chrome","192.168.0.19",45711,"","151.101.69.140",443,"https","TCP",9,800,"San Francisco","California","US"
0,"","192.168.0.1",53,"domain","192.168.0.19",7049,"","UDP",1,131,"","",""
10022,"com.google.android.syncadapters.bookmarks","74.125.202.188",5228,"","192.168.0.19",33669,"","TCP",43,7255,"Mountain View","California","US"
10114,"com.google.android.videos","216.58.217.46",443,"https","192.168.0.19",54261,"","TCP",8,1229,"Mountain View","California","US"
10144,"com.android.chrome","151.101.69.140",443,"https","192.168.0.19",45665,"","TCP",5,4130,"San Francisco","California","US"
10144,"com.android.chrome","216.58.217.35",443,"https","192.168.0.19",48237,"","UDP",27,32135,"Mountain View","California","US"
10067,"com.android.vending","216.58.217.10",443,"https","192.168.0.19",48288,"","TCP",12,5245,"Mountain View","California","US"
0,"","192.168.29.1",53,"domain","192.168.29.102",1851,"ctcd","UDP",1,105,"","",""
10144,"com.android.chrome","192.168.0.19",45666,"","151.101.69.140",443,"https","TCP",9,797,"San Francisco","California","US"
0,"","192.168.0.1",53,"domain","192.168.0.19",33559,"","UDP",1,121,"","",""
0,"","192.168.0.1",53,"domain","192.168.0.19",61710,"","UDP",1,112,"","",""
0,"","192.168.0.1",53,"domain","192.168.0.19",19039,"","UDP",1,85,"","",""
10022,"com.google.android.syncadapters.bookmarks","192.168.0.19",58803,"","216.58.217.42",443,"https","TCP",13,2312,"Mountain View","California","US"
10022,"com.google.android.syncadapters.bookmarks","74.125.69.188",5228,"","192.168.29.102",47579,"","TCP",9,860,"Mountain View","California","US"
10022,"com.google.android.syncadapters.bookmarks","216.58.217.10",443,"https","192.168.0.19",48188,"","TCP",10,5120,"Mountain View","California","US"
0,"","192.168.0.1",53,"domain","192.168.0.19",6240,"","UDP",1,163,"","",""
10144,"com.android.chrome","192.168.0.19",51207,"","172.217.3.196",443,"https","UDP",492,48077,"Mountain View","California","US"
0,"","192.168.0.1",53,"domain","192.168.0.19",4546,"sf-lm","UDP",1,131,"","",""
10022,"com.google.android.syncadapters.bookmarks","192.168.0.19",54227,"","216.58.217.46",443,"https","TCP",15,2044,"Mountain View","California","US"
0,"","192.168.0.19",27483,"","192.168.0.1",53,"domain","UDP",1,56,"","",""
0,"","192.168.0.1",53,"domain","192.168.0.19",24477,"","UDP",1,114,"","",""
10144,"com.android.chrome","192.168.0.19",45660,"","151.101.69.140",443,"https","TCP",9,807,"San Francisco","California","US"
0,"","192.168.0.1",53,"domain","192.168.0.19",53055,"","UDP",1,130,"","",""
10022,"com.google.android.syncadapters.bookmarks","192.168.0.19",58794,"","216.58.217.42",443,"https","TCP",28,3041,"Mountain View","California","US"
10114,"com.google.android.videos","216.58.195.78",443,"https","192.168.0.19",37471,"","TCP",11,5705,"Mountain View","California","US"
10114,"com.google.android.videos","216.58.217.46",443,"https","192.168.0.19",54250,"","TCP",9,1281,"Mountain View","California","US"
10144,"com.android.chrome","192.168.0.19",60934,"","52.40.110.82",443,"https","TCP",11,885,"Boardman","Oregon","US"
0,"","192.168.0.19",17284,"","192.168.0.1",53,"domain","UDP",1,63,"","",""
0,"","192.168.0.1",53,"domain","192.168.0.19",15165,"","UDP",1,112,"","",""
0,"","192.168.0.1",53,"domain","192.168.0.19",39142,"","UDP",1,94,"","",""
0,"","192.168.0.19",6291,"","192.168.0.1",53,"domain","UDP",1,65,"","",""
10144,"com.android.chrome","192.168.0.1",53,"domain","192.168.0.19",7550,"cloudsignaling","UDP",1,130,"","",""
10144,"com.android.chrome","52.40.110.82",443,"https","192.168.0.19",60934,"","TCP",8,3627,"Boardman","Oregon","US"
-1,"","192.168.29.1",137,"netbios-ns","192.168.29.102",137,"netbios-ns","UDP",2,156,"","",""
0,"","192.168.0.19",1638,"ismc","192.168.0.1",53,"domain","UDP",1,65,"","",""
10144,"com.android.chrome","52.35.19.240",443,"https","192.168.0.19",60553,"","TCP",8,3627,"Boardman","Oregon","US"
10144,"com.android.chrome","192.168.0.19",45717,"","151.101.69.140",443,"https","TCP",9,803,"San Francisco","California","US"
0,"","192.168.0.1",53,"domain","192.168.0.19",29955,"","UDP",1,121,"","",""
10114,"com.google.android.videos","216.58.217.46",443,"https","192.168.0.19",54368,"","TCP",19,8083,"Mountain View","California","US"
0,"","192.168.0.19",10337,"","192.168.0.1",53,"domain","UDP",1,65,"","",""
10144,"com.android.chrome","52.40.110.82",443,"https","192.168.0.19",60935,"","TCP",8,3627,"Boardman","Oregon","US"
0,"","192.168.0.1",53,"domain","192.168.0.19",33871,"","UDP",1,107,"","",""
10022,"com.google.android.syncadapters.bookmarks","192.168.0.19",46046,"","172.217.4.170",443,"https","TCP",11,1991,"Mountain View","California","US"
0,"","192.168.0.1",53,"domain","192.168.0.19",62271,"","UDP",1,107,"","",""
10144,"com.android.chrome","151.101.69.140",443,"https","192.168.0.19",45716,"","TCP",5,4130,"San Francisco","California","US"
10144,"com.android.chrome","192.168.0.19",45655,"","151.101.69.140",443,"https","TCP",9,795,"San Francisco","California","US"
0,"","192.168.0.1",53,"domain","192.168.0.19",35951,"","UDP",1,130,"","",""
0,"","192.168.0.19",36225,"","192.168.0.1",53,"domain","UDP",1,65,"","",""
0,"","192.168.0.1",53,"domain","192.168.0.19",51190,"","UDP",1,76,"","",""
10144,"com.android.chrome","192.168.0.19",45709,"","151.101.69.140",443,"https","TCP",9,800,"San Francisco","California","US"
0,"","192.168.0.1",53,"domain","192.168.0.19",29728,"","UDP",1,79,"","",""
10022,"com.google.android.syncadapters.bookmarks","192.168.0.19",53863,"","216.58.217.34",443,"https","TCP",11,1250,"Mountain View","California","US"
10022,"com.google.android.syncadapters.bookmarks","216.58.217.42",443,"https","192.168.0.19",58798,"","TCP",12,5558,"Mountain View","California","US"
10114,"com.google.android.videos","216.58.217.46",443,"https","192.168.0.19",54269,"","TCP",10,1345,"Mountain View","California","US"
-1,"","192.168.29.1",41033,"","192.168.29.102",80,"http","TCP",1,60,"","",""
10001,"com.tmobile.pr.mytmobile","192.168.0.19",36654,"","65.52.232.150",443,"https","TCP",3,180,"Chicago","Illinois","US"
0,"","192.168.0.19",19039,"","192.168.0.1",53,"domain","UDP",1,69,"","",""
10022,"com.google.android.syncadapters.bookmarks","216.58.217.42",443,"https","192.168.0.19",58803,"","TCP",10,4608,"Mountain View","California","US"
10144,"com.android.chrome","192.168.0.19",60953,"","52.40.110.82",443,"https","TCP",14,3436,"Boardman","Oregon","US"
10144,"com.android.chrome","192.168.0.19",60933,"","52.40.110.82",443,"https","TCP",11,885,"Boardman","Oregon","US"
0,"","192.168.0.1",53,"domain","192.168.0.19",2483,"ttc","UDP",1,112,"","",""
10144,"com.android.chrome","151.101.69.140",443,"https","192.168.0.19",45657,"","TCP",5,4130,"San Francisco","California","US"
0,"","192.168.0.1",53,"domain","192.168.0.19",48905,"","UDP",1,109,"","",""
0,"","192.168.0.19",39895,"","192.168.0.1",53,"domain","UDP",1,66,"","",""
10022,"com.google.android.syncadapters.bookmarks","192.168.0.19",48188,"","216.58.217.10",443,"https","TCP",14,2433,"Mountain View","California","US"
1000,"","192.168.29.102",55599,"","216.58.217.46",80,"http","TCP",6,511,"Mountain View","California","US"
0,"","192.168.0.19",18752,"","192.168.0.1",53,"domain","UDP",1,68,"","",""
10144,"com.android.chrome","192.168.0.19",55572,"","216.58.217.35",443,"https","UDP",3,1507,"Mountain View","California","US"
0,"","192.168.29.102",47663,"","192.168.29.1",53,"domain","UDP",1,63,"","",""
10045,"com.carrieriq.tmobile","192.168.0.19",58374,"","192.168.0.1",53,"domain","UDP",1,64,"","",""
0,"","192.168.0.19",48905,"","192.168.0.1",53,"domain","UDP",1,58,"","",""
10144,"com.android.chrome","192.168.0.19",45715,"","151.101.69.140",443,"https","TCP",9,803,"San Francisco","California","US"
10022,"com.google.android.syncadapters.bookmarks","192.168.0.19",54275,"","216.58.217.46",443,"https","TCP",10,1668,"Mountain View","California","US"
-1,"","192.168.29.102",137,"netbios-ns","192.168.29.1",137,"netbios-ns","ICMP",2,212,"","",""
0,"","192.168.0.1",53,"domain","192.168.0.19",18811,"","UDP",1,123,"","",""
0,"","192.168.0.19",64372,"","192.168.0.1",53,"domain","UDP",1,64,"","",""
10144,"com.android.chrome","192.168.0.19",45681,"","151.101.69.140",443,"https","TCP",19,2285,"San Francisco","California","US"
10112,"com.google.android.googlequicksearchbox","192.168.0.19",48533,"","216.58.193.68",443,"https","TCP",13,1391,"Mountain View","California","US"
0,"","192.168.0.1",53,"domain","192.168.0.19",60145,"","UDP",1,117,"","",""
10114,"com.google.android.videos","192.168.0.19",37471,"","216.58.195.78",443,"https","TCP",13,1663,"Mountain View","California","US"
0,"","192.168.0.1",53,"domain","192.168.0.19",23247,"","UDP",1,105,"","",""
10144,"com.android.chrome","192.168.0.19",54352,"","216.58.217.46",443,"https","TCP",14,1196,"Mountain View","California","US"
0,"","192.168.0.1",53,"domain","192.168.0.19",38246,"","UDP",1,112,"","",""
0,"","192.168.0.1",53,"domain","192.168.0.19",47182,"","UDP",1,130,"","",""
10022,"com.google.android.syncadapters.bookmarks","216.58.217.42",443,"https","192.168.0.19",58826,"","TCP",7,908,"Mountain View","California","US"
10144,"com.android.chrome","23.73.156.235",443,"https","192.168.0.19",37230,"","TCP",7,5174,"Cambridge","Massachusetts","US"
10022,"com.google.android.syncadapters.bookmarks","216.58.217.46",443,"https","192.168.0.19",54241,"","TCP",12,1269,"Mountain View","California","US"
0,"","192.168.0.19",59639,"","192.168.0.1",53,"domain","UDP",1,70,"","",""
0,"","192.168.0.19",39165,"","192.168.0.1",53,"domain","UDP",2,130,"","",""
10067,"com.android.vending","216.58.217.46",443,"https","192.168.0.19",54234,"","TCP",40,29629,"Mountain View","California","US"
0,"","192.168.0.19",16684,"","192.168.0.1",53,"domain","UDP",1,63,"","",""
0,"","192.168.0.1",53,"domain","192.168.0.19",17284,"","UDP",1,114,"","",""
10114,"com.google.android.videos","216.58.217.14",443,"https","192.168.0.19",41793,"","TCP",11,5705,"Mountain View","California","US"
0,"","192.168.0.1",53,"domain","192.168.0.19",11537,"","UDP",1,76,"","",""
10144,"com.android.chrome","216.58.217.34",443,"https","192.168.0.19",53974,"","TCP",10,4909,"Mountain View","California","US"
0,"","192.168.0.19",38246,"","192.168.0.1",53,"domain","UDP",1,72,"","",""
10144,"com.android.chrome","192.168.0.19",45683,"","151.101.69.140",443,"https","TCP",52,5744,"San Francisco","California","US"
10144,"com.android.chrome","192.168.0.19",41635,"","216.58.217.3",443,"https","UDP",7,3578,"Mountain View","California","US"
10144,"com.android.chrome","172.217.3.195",443,"https","192.168.0.19",46188,"","UDP",168,222878,"Mountain View","California","US"
0,"","192.168.0.1",53,"domain","192.168.0.19",60608,"","UDP",1,76,"","",""
10067,"com.android.vending","192.168.0.19",58789,"","216.58.217.42",443,"https","TCP",15,3457,"Mountain View","California","US"
10001,"com.tmobile.pr.mytmobile","192.168.0.19",36760,"","65.52.232.150",443,"https","TCP",3,180,"Chicago","Illinois","US"
0,"","192.168.0.1",53,"domain","192.168.0.19",8505,"","UDP",1,107,"","",""
0,"","192.168.0.1",53,"domain","192.168.0.19",1729,"citynl","UDP",1,107,"","",""
10112,"com.google.android.googlequicksearchbox","192.168.0.19",48535,"","216.58.193.68",443,"https","TCP",10,1372,"Mountain View","California","US"
0,"","192.168.0.1",53,"domain","192.168.0.19",36225,"","UDP",1,116,"","",""
10144,"com.android.chrome","192.168.0.19",45700,"","151.101.69.140",443,"https","TCP",9,807,"San Francisco","California","US"
0,"","192.168.0.19",57867,"","192.168.0.1",53,"domain","UDP",2,126,"","",""
10022,"com.google.android.syncadapters.bookmarks","216.58.217.42",443,"https","192.168.0.19",58785,"","TCP",47,59602,"Mountain View","California","US"
0,"","192.168.0.19",64421,"","192.168.0.1",53,"domain","UDP",1,72,"","",""
10144,"com.android.chrome","192.168.0.19",49294,"","216.58.217.35",443,"https","TCP",21,2194,"Mountain View","California","US"
10114,"com.google.android.videos","192.168.0.19",54256,"","216.58.217.46",443,"https","TCP",11,2150,"Mountain View","California","US"
0,"","192.168.0.19",40317,"","192.168.0.1",53,"domain","UDP",1,61,"","",""
10022,"com.google.android.syncadapters.bookmarks","216.58.217.42",443,"https","192.168.0.19",58818,"","TCP",10,4784,"Mountain View","California","US"
0,"","192.168.29.102",40455,"","192.168.29.1",53,"domain","UDP",1,62,"","",""
0,"","192.168.0.19",2125,"lockstep","192.168.0.1",53,"domain","UDP",1,60,"","",""
10114,"com.google.android.videos","192.168.0.19",54269,"","216.58.217.46",443,"https","TCP",12,2890,"Mountain View","California","US"
10144,"com.android.chrome","192.168.0.19",48237,"","216.58.217.35",443,"https","UDP",17,4181,"Mountain View","California","US"
0,"","192.168.29.1",53,"domain","192.168.29.102",1217,"hpss-ndapi","UDP",1,107,"","",""
10144,"com.android.chrome","192.168.0.19",45670,"","151.101.69.140",443,"https","TCP",9,800,"San Francisco","California","US"
0,"","192.168.0.19",15238,"","192.168.0.1",53,"domain","UDP",1,72,"","",""
0,"","192.168.0.1",53,"domain","192.168.0.19",10337,"","UDP",1,131,"","",""
0,"","192.168.0.1",53,"domain","192.168.0.19",16004,"","UDP",1,76,"","",""
0,"","192.168.29.1",53,"domain","192.168.29.102",40455,"","UDP",1,117,"","",""
10022,"com.google.android.syncadapters.bookmarks","192.168.0.19",46048,"","172.217.4.170",443,"https","TCP",12,1691,"Mountain View","California","US"
10001,"com.tmobile.pr.mytmobile","192.168.0.19",36653,"","65.52.232.150",443,"https","TCP",3,180,"Chicago","Illinois","US"
10144,"com.android.chrome","151.101.69.140",443,"https","192.168.0.19",45681,"","TCP",15,4884,"San Francisco","California","US"
1000,"","192.168.0.19",43939,"","216.58.217.46",80,"http","TCP",1,64,"Mountain View","California","US"
0,"","192.168.0.1",53,"domain","192.168.0.19",59639,"","UDP",1,121,"","",""
10144,"com.android.chrome","192.168.0.19",59963,"","172.217.4.174",443,"https","TCP",13,1142,"Mountain View","California","US"
0,"","192.168.0.1",53,"domain","192.168.0.19",7493,"","UDP",1,131,"","",""
10114,"com.google.android.videos","192.168.0.19",54248,"","216.58.217.46",443,"https","TCP",11,2150,"Mountain View","California","US"
10144,"com.android.chrome","151.101.69.140",443,"https","192.168.0.19",45715,"","TCP",5,4130,"San Francisco","California","US"
0,"","192.168.0.19",34543,"","192.168.0.1",53,"domain","UDP",1,63,"","",""
10114,"com.google.android.videos","192.168.0.19",54368,"","216.58.217.46",443,"https","TCP",25,4808,"Mountain View","California","US"
0,"","192.168.0.1",53,"domain","192.168.0.19",16684,"","UDP",1,107,"","",""
10022,"com.google.android.syncadapters.bookmarks","192.168.0.19",48164,"","216.58.217.10",443,"https","TCP",13,1657,"Mountain View","California","US"
10144,"com.android.chrome","192.168.0.19",51121,"","199.96.57.6",443,"https","TCP",6,888,"San Francisco","California","US"
10144,"com.android.chrome","192.168.0.19",44311,"","216.58.193.100",443,"https","TCP",17,1486,"Mountain View","California","US"
10022,"com.google.android.syncadapters.bookmarks","216.58.217.10",443,"https","192.168.0.19",48164,"","TCP",9,5075,"Mountain View","California","US"
0,"","192.168.0.1",53,"domain","192.168.0.19",62601,"","UDP",1,107,"","",""
0,"","192.168.0.1",53,"domain","192.168.0.19",54065,"","UDP",1,76,"","",""
10144,"com.android.chrome","151.101.69.140",443,"https","192.168.0.19",45671,"","TCP",5,4114,"San Francisco","California","US"
10144,"com.android.chrome","216.58.217.46",443,"https","192.168.0.19",54347,"","TCP",13,7028,"Mountain View","California","US"
10144,"com.android.chrome","151.101.69.140",443,"https","192.168.0.19",45713,"","TCP",5,4130,"San Francisco","California","US"
10144,"com.android.chrome","216.58.217.46",443,"https","192.168.0.19",54316,"","TCP",10,6817,"Mountain View","California","US"
0,"","192.168.0.1",53,"domain","192.168.0.19",5692,"","UDP",1,79,"","",""
0,"","192.168.0.1",53,"domain","192.168.0.19",29988,"","UDP",1,146,"","",""
10022,"com.google.android.syncadapters.bookmarks","192.168.0.19",48232,"","216.58.217.10",443,"https","TCP",13,1657,"Mountain View","California","US"
10144,"com.android.chrome","192.168.0.19",45672,"","151.101.69.140",443,"https","TCP",10,864,"San Francisco","California","US"
0,"","192.168.0.19",33237,"","192.168.0.1",53,"domain","UDP",1,64,"","",""
10001,"com.tmobile.pr.mytmobile","192.168.0.19",36761,"","65.52.232.150",443,"https","TCP",3,180,"Chicago","Illinois","US"
0,"","192.168.0.1",53,"domain","192.168.0.19",18010,"","UDP",1,115,"","",""
10144,"com.android.chrome","151.101.69.140",443,"https","192.168.0.19",45711,"","TCP",5,4114,"San Francisco","California","US"
10144,"com.android.chrome","52.35.19.240",443,"https","192.168.0.19",60552,"","TCP",8,3627,"Boardman","Oregon","US"
0,"","192.168.0.19",22261,"","192.168.0.1",53,"domain","UDP",1,53,"","",""
0,"","192.168.0.19",58500,"","192.168.0.1",53,"domain","UDP",1,65,"","",""
10144,"com.android.chrome","192.168.0.19",45708,"","151.101.69.140",443,"https","TCP",9,800,"San Francisco","California","US"
-1,"","216.58.217.46",80,"http","192.168.0.19",43939,"","TCP",2,104,"Mountain View","California","US"
10144,"com.android.chrome","151.101.69.140",443,"https","192.168.0.19",45707,"","TCP",5,4130,"San Francisco","California","US"
10001,"com.tmobile.pr.mytmobile","192.168.0.19",38007,"","52.85.83.68",80,"http","TCP",7,522,"Seattle","Washington","US"
0,"","192.168.0.19",34759,"","192.168.0.1",53,"domain","UDP",1,58,"","",""
10144,"com.android.chrome","172.217.3.196",443,"https","192.168.0.19",51207,"","UDP",841,989869,"Mountain View","California","US"
0,"","192.168.0.19",57449,"","192.168.0.1",53,"domain","UDP",1,63,"","",""
10144,"com.android.chrome","151.101.69.140",443,"https","192.168.0.19",45673,"","TCP",5,4130,"San Francisco","California","US"
0,"","192.168.0.19",7493,"","192.168.0.1",53,"domain","UDP",1,65,"","",""
10045,"com.carrieriq.tmobile","192.168.0.19",49828,"","192.168.0.1",53,"domain","UDP",1,64,"","",""
0,"","192.168.0.19",18797,"","192.168.0.1",53,"domain","UDP",1,61,"","",""
0,"","192.168.0.19",12792,"","192.168.0.1",53,"domain","UDP",1,60,"","",""
0,"","192.168.0.19",47182,"","192.168.0.1",53,"domain","UDP",1,70,"","",""
0,"","192.168.0.1",53,"domain","192.168.0.19",22716,"","UDP",1,114,"","",""
10144,"com.android.chrome","192.168.0.1",53,"domain","192.168.0.19",42836,"","UDP",1,128,"","",""
10144,"com.android.chrome","192.168.0.19",49287,"","216.58.217.35",443,"https","TCP",12,1933,"Mountain View","California","US"
0,"","192.168.0.1",53,"domain","192.168.0.19",14908,"","UDP",1,130,"","",""
0,"","192.168.0.19",8505,"","192.168.0.1",53,"domain","UDP",1,63,"","",""
10144,"com.android.chrome","192.168.0.19",59500,"","54.175.69.3",443,"https","TCP",12,932,"Ashburn","Virginia","US"
0,"","192.168.0.19",18811,"","192.168.0.1",53,"domain","UDP",1,73,"","",""
0,"","192.168.0.1",53,"domain","192.168.0.19",32864,"","UDP",1,127,"","",""
10144,"com.android.chrome","192.168.0.19",45704,"","151.101.69.140",443,"https","TCP",9,807,"San Francisco","California","US"
10144,"com.android.chrome","216.58.217.46",443,"https","192.168.0.19",54300,"","TCP",20,6485,"Mountain View","California","US"
10144,"com.android.chrome","192.168.0.19",45669,"","151.101.69.140",443,"https","TCP",9,800,"San Francisco","California","US"
0,"","192.168.0.19",62271,"","192.168.0.1",53,"domain","UDP",1,63,"","",""
0,"","192.168.0.1",53,"domain","192.168.0.19",64874,"","UDP",1,130,"","",""
10114,"com.google.android.videos","192.168.0.19",54250,"","216.58.217.46",443,"https","TCP",11,2150,"Mountain View","California","US"
0,"","192.168.0.1",53,"domain","192.168.0.19",58500,"","UDP",1,105,"","",""
10144,"com.android.chrome","151.101.69.140",443,"https","192.168.0.19",45683,"","TCP",44,39395,"San Francisco","California","US"
0,"","192.168.0.1",53,"domain","192.168.0.19",48566,"","UDP",1,130,"","",""
10045,"com.carrieriq.tmobile","192.168.0.1",53,"domain","192.168.0.19",58374,"","UDP",1,130,"","",""
10144,"com.android.chrome","192.168.0.19",53549,"","216.58.217.33",443,"https","TCP",24,2257,"Mountain View","California","US"
10022,"com.google.android.syncadapters.bookmarks","192.168.0.19",48285,"","216.58.217.10",443,"https","TCP",59,4360,"Mountain View","California","US"
10144,"com.android.chrome","192.168.0.19",45701,"","151.101.69.140",443,"https","TCP",9,807,"San Francisco","California","US"
10144,"com.android.chrome","192.168.0.19",36881,"","199.16.156.52",443,"https","TCP",13,1026,"San Francisco","California","US"
10022,"com.google.android.syncadapters.bookmarks","192.168.0.19",54266,"","216.58.217.46",443,"https","TCP",12,1793,"Mountain View","California","US"
0,"","192.168.0.1",53,"domain","192.168.0.19",40317,"","UDP",1,77,"","",""
0,"","192.168.29.102",1851,"ctcd","192.168.29.1",53,"domain","UDP",1,65,"","",""
